r22sdf64/r22sdf64.sim/sim_1/behav/xsim/simulate.log
Time resolution is 1 ps
LOG_M=          6, di_count= x, bf1_bf=x, bf2_bf=x, bf1_count= x, tw_sel=xx, tw_num= x, tw_addr= x, mu_en=x
LOG_M=          4, di_count= x, bf1_bf=x, bf2_bf=x, bf1_count= x, tw_sel=xx, tw_num= X, tw_addr= x, mu_en=x
LOG_M=          2, di_count= x, bf1_bf=x, bf2_bf=x, bf1_count= x, tw_sel=xx, tw_num= 0, tw_addr= x, mu_en=x
LOG_M=          6, di_count= 0, bf1_bf=0, bf2_bf=x, bf1_count= 0, tw_sel=00, tw_num= 0, tw_addr= 0, mu_en=x
LOG_M=          4, di_count= 0, bf1_bf=0, bf2_bf=x, bf1_count= 0, tw_sel=00, tw_num= 0, tw_addr= 0, mu_en=x
LOG_M=          2, di_count= 0, bf1_bf=0, bf2_bf=x, bf1_count= 0, tw_sel=00, tw_num= 0, tw_addr= 0, mu_en=x
LOG_M=          6, di_count= 0, bf1_bf=0, bf2_bf=0, bf1_count= 0, tw_sel=00, tw_num= 0, tw_addr= 0, mu_en=0
LOG_M=          4, di_count= 0, bf1_bf=0, bf2_bf=0, bf1_count= 0, tw_sel=00, tw_num= 0, tw_addr= 0, mu_en=0
LOG_M=          2, di_count= 0, bf1_bf=0, bf2_bf=0, bf1_count= 0, tw_sel=00, tw_num= 0, tw_addr= 0, mu_en=0
LOG_M=          6, di_count= 0, bf1_bf=0, bf2_bf=0, bf1_count= 0, tw_sel=00, tw_num= 0, tw_addr= 0, mu_en=0
LOG_M=          4, di_count= 0, bf1_bf=0, bf2_bf=0, bf1_count= 0, tw_sel=00, tw_num= 0, tw_addr= 0, mu_en=0
LOG_M=          2, di_count= 0, bf1_bf=0, bf2_bf=0, bf1_count= 0, tw_sel=00, tw_num= 0, tw_addr= 0, mu_en=0
LOG_M=          6, di_count= 0, bf1_bf=0, bf2_bf=0, bf1_count= 0, tw_sel=00, tw_num= 0, tw_addr= 0, mu_en=0
LOG_M=          4, di_count= 0, bf1_bf=0, bf2_bf=0, bf1_count= 0, tw_sel=00, tw_num= 0, tw_addr= 0, mu_en=0
LOG_M=          2, di_count= 0, bf1_bf=0, bf2_bf=0, bf1_count= 0, tw_sel=00, tw_num= 0, tw_addr= 0, mu_en=0
LOG_M=          6, di_count= 0, bf1_bf=0, bf2_bf=0, bf1_count= 0, tw_sel=00, tw_num= 0, tw_addr= 0, mu_en=0
LOG_M=          4, di_count= 0, bf1_bf=0, bf2_bf=0, bf1_count= 0, tw_sel=00, tw_num= 0, tw_addr= 0, mu_en=0
LOG_M=          2, di_count= 0, bf1_bf=0, bf2_bf=0, bf1_count= 0, tw_sel=00, tw_num= 0, tw_addr= 0, mu_en=0
LOG_M=          6, di_count= 0, bf1_bf=0, bf2_bf=0, bf1_count= 0, tw_sel=00, tw_num= 0, tw_addr= 0, mu_en=0
LOG_M=          4, di_count= 0, bf1_bf=0, bf2_bf=0, bf1_count= 0, tw_sel=00, tw_num= 0, tw_addr= 0, mu_en=0
LOG_M=          2, di_count= 0, bf1_bf=0, bf2_bf=0, bf1_count= 0, tw_sel=00, tw_num= 0, tw_addr= 0, mu_en=0
LOG_M=          6, di_count= 0, bf1_bf=0, bf2_bf=0, bf1_count= 0, tw_sel=00, tw_num= 0, tw_addr= 0, mu_en=0
LOG_M=          4, di_count= 0, bf1_bf=0, bf2_bf=0, bf1_count= 0, tw_sel=00, tw_num= 0, tw_addr= 0, mu_en=0
LOG_M=          2, di_count= 0, bf1_bf=0, bf2_bf=0, bf1_count= 0, tw_sel=00, tw_num= 0, tw_addr= 0, mu_en=0
LOG_M=          6, di_count= 0, bf1_bf=0, bf2_bf=0, bf1_count= 0, tw_sel=00, tw_num= 0, tw_addr= 0, mu_en=0
LOG_M=          4, di_count= 0, bf1_bf=0, bf2_bf=0, bf1_count= 0, tw_sel=00, tw_num= 0, tw_addr= 0, mu_en=0
LOG_M=          2, di_count= 0, bf1_bf=0, bf2_bf=0, bf1_count= 0, tw_sel=00, tw_num= 0, tw_addr= 0, mu_en=0
LOG_M=          6, di_count= 0, bf1_bf=0, bf2_bf=0, bf1_count= 0, tw_sel=00, tw_num= 0, tw_addr= 0, mu_en=0
LOG_M=          4, di_count= 0, bf1_bf=0, bf2_bf=0, bf1_count= 0, tw_sel=00, tw_num= 0, tw_addr= 0, mu_en=0
LOG_M=          2, di_count= 0, bf1_bf=0, bf2_bf=0, bf1_count= 0, tw_sel=00, tw_num= 0, tw_addr= 0, mu_en=0
LOG_M=          6, di_count= 0, bf1_bf=0, bf2_bf=0, bf1_count= 0, tw_sel=00, tw_num= 0, tw_addr= 0, mu_en=0
LOG_M=          4, di_count= 0, bf1_bf=0, bf2_bf=0, bf1_count= 0, tw_sel=00, tw_num= 0, tw_addr= 0, mu_en=0
LOG_M=          2, di_count= 0, bf1_bf=0, bf2_bf=0, bf1_count= 0, tw_sel=00, tw_num= 0, tw_addr= 0, mu_en=0
LOG_M=          6, di_count= 0, bf1_bf=0, bf2_bf=0, bf1_count= 0, tw_sel=00, tw_num= 0, tw_addr= 0, mu_en=0
LOG_M=          4, di_count= 0, bf1_bf=0, bf2_bf=0, bf1_count= 0, tw_sel=00, tw_num= 0, tw_addr= 0, mu_en=0
LOG_M=          2, di_count= 0, bf1_bf=0, bf2_bf=0, bf1_count= 0, tw_sel=00, tw_num= 0, tw_addr= 0, mu_en=0
LOG_M=          6, di_count= 0, bf1_bf=0, bf2_bf=0, bf1_count= 0, tw_sel=00, tw_num= 0, tw_addr= 0, mu_en=0
LOG_M=          4, di_count= 0, bf1_bf=0, bf2_bf=0, bf1_count= 0, tw_sel=00, tw_num= 0, tw_addr= 0, mu_en=0
LOG_M=          2, di_count= 0, bf1_bf=0, bf2_bf=0, bf1_count= 0, tw_sel=00, tw_num= 0, tw_addr= 0, mu_en=0
LOG_M=          6, di_count= 0, bf1_bf=0, bf2_bf=0, bf1_count= 0, tw_sel=00, tw_num= 0, tw_addr= 0, mu_en=0
LOG_M=          4, di_count= 0, bf1_bf=0, bf2_bf=0, bf1_count= 0, tw_sel=00, tw_num= 0, tw_addr= 0, mu_en=0
LOG_M=          2, di_count= 0, bf1_bf=0, bf2_bf=0, bf1_count= 0, tw_sel=00, tw_num= 0, tw_addr= 0, mu_en=0
LOG_M=          6, di_count= 0, bf1_bf=0, bf2_bf=0, bf1_count= 0, tw_sel=00, tw_num= 0, tw_addr= 0, mu_en=0
LOG_M=          4, di_count= 0, bf1_bf=0, bf2_bf=0, bf1_count= 0, tw_sel=00, tw_num= 0, tw_addr= 0, mu_en=0
LOG_M=          2, di_count= 0, bf1_bf=0, bf2_bf=0, bf1_count= 0, tw_sel=00, tw_num= 0, tw_addr= 0, mu_en=0
LOG_M=          6, di_count= 0, bf1_bf=0, bf2_bf=0, bf1_count= 0, tw_sel=00, tw_num= 0, tw_addr= 0, mu_en=0
LOG_M=          4, di_count= 0, bf1_bf=0, bf2_bf=0, bf1_count= 0, tw_sel=00, tw_num= 0, tw_addr= 0, mu_en=0
LOG_M=          2, di_count= 0, bf1_bf=0, bf2_bf=0, bf1_count= 0, tw_sel=00, tw_num= 0, tw_addr= 0, mu_en=0
LOG_M=          6, di_count= 0, bf1_bf=0, bf2_bf=0, bf1_count= 0, tw_sel=00, tw_num= 0, tw_addr= 0, mu_en=0
LOG_M=          4, di_count= 0, bf1_bf=0, bf2_bf=0, bf1_count= 0, tw_sel=00, tw_num= 0, tw_addr= 0, mu_en=0
LOG_M=          2, di_count= 0, bf1_bf=0, bf2_bf=0, bf1_count= 0, tw_sel=00, tw_num= 0, tw_addr= 0, mu_en=0
LOG_M=          6, di_count= 1, bf1_bf=0, bf2_bf=0, bf1_count= 0, tw_sel=00, tw_num= 0, tw_addr= 0, mu_en=0
LOG_M=          4, di_count= 0, bf1_bf=0, bf2_bf=0, bf1_count= 0, tw_sel=00, tw_num= 0, tw_addr= 0, mu_en=0
LOG_M=          2, di_count= 0, bf1_bf=0, bf2_bf=0, bf1_count= 0, tw_sel=00, tw_num= 0, tw_addr= 0, mu_en=0
LOG_M=          6, di_count= 2, bf1_bf=0, bf2_bf=0, bf1_count= 0, tw_sel=00, tw_num= 0, tw_addr= 0, mu_en=0
LOG_M=          4, di_count= 0, bf1_bf=0, bf2_bf=0, bf1_count= 0, tw_sel=00, tw_num= 0, tw_addr= 0, mu_en=0
LOG_M=          2, di_count= 0, bf1_bf=0, bf2_bf=0, bf1_count= 0, tw_sel=00, tw_num= 0, tw_addr= 0, mu_en=0
LOG_M=          6, di_count= 3, bf1_bf=0, bf2_bf=0, bf1_count= 0, tw_sel=00, tw_num= 0, tw_addr= 0, mu_en=0
LOG_M=          4, di_count= 0, bf1_bf=0, bf2_bf=0, bf1_count= 0, tw_sel=00, tw_num= 0, tw_addr= 0, mu_en=0
LOG_M=          2, di_count= 0, bf1_bf=0, bf2_bf=0, bf1_count= 0, tw_sel=00, tw_num= 0, tw_addr= 0, mu_en=0
LOG_M=          6, di_count= 4, bf1_bf=0, bf2_bf=0, bf1_count= 0, tw_sel=00, tw_num= 0, tw_addr= 0, mu_en=0
LOG_M=          4, di_count= 0, bf1_bf=0, bf2_bf=0, bf1_count= 0, tw_sel=00, tw_num= 0, tw_addr= 0, mu_en=0
LOG_M=          2, di_count= 0, bf1_bf=0, bf2_bf=0, bf1_count= 0, tw_sel=00, tw_num= 0, tw_addr= 0, mu_en=0
LOG_M=          6, di_count= 5, bf1_bf=0, bf2_bf=0, bf1_count= 0, tw_sel=00, tw_num= 0, tw_addr= 0, mu_en=0
LOG_M=          4, di_count= 0, bf1_bf=0, bf2_bf=0, bf1_count= 0, tw_sel=00, tw_num= 0, tw_addr= 0, mu_en=0
LOG_M=          2, di_count= 0, bf1_bf=0, bf2_bf=0, bf1_count= 0, tw_sel=00, tw_num= 0, tw_addr= 0, mu_en=0
LOG_M=          6, di_count= 6, bf1_bf=0, bf2_bf=0, bf1_count= 0, tw_sel=00, tw_num= 0, tw_addr= 0, mu_en=0
LOG_M=          4, di_count= 0, bf1_bf=0, bf2_bf=0, bf1_count= 0, tw_sel=00, tw_num= 0, tw_addr= 0, mu_en=0
LOG_M=          2, di_count= 0, bf1_bf=0, bf2_bf=0, bf1_count= 0, tw_sel=00, tw_num= 0, tw_addr= 0, mu_en=0
LOG_M=          6, di_count= 7, bf1_bf=0, bf2_bf=0, bf1_count= 0, tw_sel=00, tw_num= 0, tw_addr= 0, mu_en=0
LOG_M=          4, di_count= 0, bf1_bf=0, bf2_bf=0, bf1_count= 0, tw_sel=00, tw_num= 0, tw_addr= 0, mu_en=0
LOG_M=          2, di_count= 0, bf1_bf=0, bf2_bf=0, bf1_count= 0, tw_sel=00, tw_num= 0, tw_addr= 0, mu_en=0
LOG_M=          6, di_count= 8, bf1_bf=0, bf2_bf=0, bf1_count= 0, tw_sel=00, tw_num= 0, tw_addr= 0, mu_en=0
LOG_M=          4, di_count= 0, bf1_bf=0, bf2_bf=0, bf1_count= 0, tw_sel=00, tw_num= 0, tw_addr= 0, mu_en=0
LOG_M=          2, di_count= 0, bf1_bf=0, bf2_bf=0, bf1_count= 0, tw_sel=00, tw_num= 0, tw_addr= 0, mu_en=0
LOG_M=          6, di_count= 9, bf1_bf=0, bf2_bf=0, bf1_count= 0, tw_sel=00, tw_num= 0, tw_addr= 0, mu_en=0
LOG_M=          4, di_count= 0, bf1_bf=0, bf2_bf=0, bf1_count= 0, tw_sel=00, tw_num= 0, tw_addr= 0, mu_en=0
LOG_M=          2, di_count= 0, bf1_bf=0, bf2_bf=0, bf1_count= 0, tw_sel=00, tw_num= 0, tw_addr= 0, mu_en=0
LOG_M=          6, di_count=10, bf1_bf=0, bf2_bf=0, bf1_count= 0, tw_sel=00, tw_num= 0, tw_addr= 0, mu_en=0
LOG_M=          4, di_count= 0, bf1_bf=0, bf2_bf=0, bf1_count= 0, tw_sel=00, tw_num= 0, tw_addr= 0, mu_en=0
LOG_M=          2, di_count= 0, bf1_bf=0, bf2_bf=0, bf1_count= 0, tw_sel=00, tw_num= 0, tw_addr= 0, mu_en=0
LOG_M=          6, di_count=11, bf1_bf=0, bf2_bf=0, bf1_count= 0, tw_sel=00, tw_num= 0, tw_addr= 0, mu_en=0
LOG_M=          4, di_count= 0, bf1_bf=0, bf2_bf=0, bf1_count= 0, tw_sel=00, tw_num= 0, tw_addr= 0, mu_en=0
LOG_M=          2, di_count= 0, bf1_bf=0, bf2_bf=0, bf1_count= 0, tw_sel=00, tw_num= 0, tw_addr= 0, mu_en=0
LOG_M=          6, di_count=12, bf1_bf=0, bf2_bf=0, bf1_count= 0, tw_sel=00, tw_num= 0, tw_addr= 0, mu_en=0
LOG_M=          4, di_count= 0, bf1_bf=0, bf2_bf=0, bf1_count= 0, tw_sel=00, tw_num= 0, tw_addr= 0, mu_en=0
LOG_M=          2, di_count= 0, bf1_bf=0, bf2_bf=0, bf1_count= 0, tw_sel=00, tw_num= 0, tw_addr= 0, mu_en=0
LOG_M=          6, di_count=13, bf1_bf=0, bf2_bf=0, bf1_count= 0, tw_sel=00, tw_num= 0, tw_addr= 0, mu_en=0
LOG_M=          4, di_count= 0, bf1_bf=0, bf2_bf=0, bf1_count= 0, tw_sel=00, tw_num= 0, tw_addr= 0, mu_en=0
LOG_M=          2, di_count= 0, bf1_bf=0, bf2_bf=0, bf1_count= 0, tw_sel=00, tw_num= 0, tw_addr= 0, mu_en=0
LOG_M=          6, di_count=14, bf1_bf=0, bf2_bf=0, bf1_count= 0, tw_sel=00, tw_num= 0, tw_addr= 0, mu_en=0
LOG_M=          4, di_count= 0, bf1_bf=0, bf2_bf=0, bf1_count= 0, tw_sel=00, tw_num= 0, tw_addr= 0, mu_en=0
LOG_M=          2, di_count= 0, bf1_bf=0, bf2_bf=0, bf1_count= 0, tw_sel=00, tw_num= 0, tw_addr= 0, mu_en=0
LOG_M=          6, di_count=15, bf1_bf=0, bf2_bf=0, bf1_count= 0, tw_sel=00, tw_num= 0, tw_addr= 0, mu_en=0
LOG_M=          4, di_count= 0, bf1_bf=0, bf2_bf=0, bf1_count= 0, tw_sel=00, tw_num= 0, tw_addr= 0, mu_en=0
LOG_M=          2, di_count= 0, bf1_bf=0, bf2_bf=0, bf1_count= 0, tw_sel=00, tw_num= 0, tw_addr= 0, mu_en=0
LOG_M=          6, di_count=16, bf1_bf=0, bf2_bf=0, bf1_count= 0, tw_sel=00, tw_num= 0, tw_addr= 0, mu_en=0
LOG_M=          4, di_count= 0, bf1_bf=0, bf2_bf=0, bf1_count= 0, tw_sel=00, tw_num= 0, tw_addr= 0, mu_en=0
LOG_M=          2, di_count= 0, bf1_bf=0, bf2_bf=0, bf1_count= 0, tw_sel=00, tw_num= 0, tw_addr= 0, mu_en=0
LOG_M=          6, di_count=17, bf1_bf=0, bf2_bf=0, bf1_count= 0, tw_sel=00, tw_num= 0, tw_addr= 0, mu_en=0
LOG_M=          4, di_count= 0, bf1_bf=0, bf2_bf=0, bf1_count= 0, tw_sel=00, tw_num= 0, tw_addr= 0, mu_en=0
LOG_M=          2, di_count= 0, bf1_bf=0, bf2_bf=0, bf1_count= 0, tw_sel=00, tw_num= 0, tw_addr= 0, mu_en=0
LOG_M=          6, di_count=18, bf1_bf=0, bf2_bf=0, bf1_count= 0, tw_sel=00, tw_num= 0, tw_addr= 0, mu_en=0
LOG_M=          4, di_count= 0, bf1_bf=0, bf2_bf=0, bf1_count= 0, tw_sel=00, tw_num= 0, tw_addr= 0, mu_en=0
LOG_M=          2, di_count= 0, bf1_bf=0, bf2_bf=0, bf1_count= 0, tw_sel=00, tw_num= 0, tw_addr= 0, mu_en=0
LOG_M=          6, di_count=19, bf1_bf=0, bf2_bf=0, bf1_count= 0, tw_sel=00, tw_num= 0, tw_addr= 0, mu_en=0
LOG_M=          4, di_count= 0, bf1_bf=0, bf2_bf=0, bf1_count= 0, tw_sel=00, tw_num= 0, tw_addr= 0, mu_en=0
LOG_M=          2, di_count= 0, bf1_bf=0, bf2_bf=0, bf1_count= 0, tw_sel=00, tw_num= 0, tw_addr= 0, mu_en=0
LOG_M=          6, di_count=20, bf1_bf=0, bf2_bf=0, bf1_count= 0, tw_sel=00, tw_num= 0, tw_addr= 0, mu_en=0
LOG_M=          4, di_count= 0, bf1_bf=0, bf2_bf=0, bf1_count= 0, tw_sel=00, tw_num= 0, tw_addr= 0, mu_en=0
LOG_M=          2, di_count= 0, bf1_bf=0, bf2_bf=0, bf1_count= 0, tw_sel=00, tw_num= 0, tw_addr= 0, mu_en=0
LOG_M=          6, di_count=21, bf1_bf=0, bf2_bf=0, bf1_count= 0, tw_sel=00, tw_num= 0, tw_addr= 0, mu_en=0
LOG_M=          4, di_count= 0, bf1_bf=0, bf2_bf=0, bf1_count= 0, tw_sel=00, tw_num= 0, tw_addr= 0, mu_en=0
LOG_M=          2, di_count= 0, bf1_bf=0, bf2_bf=0, bf1_count= 0, tw_sel=00, tw_num= 0, tw_addr= 0, mu_en=0
LOG_M=          6, di_count=22, bf1_bf=0, bf2_bf=0, bf1_count= 0, tw_sel=00, tw_num= 0, tw_addr= 0, mu_en=0
LOG_M=          4, di_count= 0, bf1_bf=0, bf2_bf=0, bf1_count= 0, tw_sel=00, tw_num= 0, tw_addr= 0, mu_en=0
LOG_M=          2, di_count= 0, bf1_bf=0, bf2_bf=0, bf1_count= 0, tw_sel=00, tw_num= 0, tw_addr= 0, mu_en=0
LOG_M=          6, di_count=23, bf1_bf=0, bf2_bf=0, bf1_count= 0, tw_sel=00, tw_num= 0, tw_addr= 0, mu_en=0
LOG_M=          4, di_count= 0, bf1_bf=0, bf2_bf=0, bf1_count= 0, tw_sel=00, tw_num= 0, tw_addr= 0, mu_en=0
LOG_M=          2, di_count= 0, bf1_bf=0, bf2_bf=0, bf1_count= 0, tw_sel=00, tw_num= 0, tw_addr= 0, mu_en=0
LOG_M=          6, di_count=24, bf1_bf=0, bf2_bf=0, bf1_count= 0, tw_sel=00, tw_num= 0, tw_addr= 0, mu_en=0
LOG_M=          4, di_count= 0, bf1_bf=0, bf2_bf=0, bf1_count= 0, tw_sel=00, tw_num= 0, tw_addr= 0, mu_en=0
LOG_M=          2, di_count= 0, bf1_bf=0, bf2_bf=0, bf1_count= 0, tw_sel=00, tw_num= 0, tw_addr= 0, mu_en=0
LOG_M=          6, di_count=25, bf1_bf=0, bf2_bf=0, bf1_count= 0, tw_sel=00, tw_num= 0, tw_addr= 0, mu_en=0
LOG_M=          4, di_count= 0, bf1_bf=0, bf2_bf=0, bf1_count= 0, tw_sel=00, tw_num= 0, tw_addr= 0, mu_en=0
LOG_M=          2, di_count= 0, bf1_bf=0, bf2_bf=0, bf1_count= 0, tw_sel=00, tw_num= 0, tw_addr= 0, mu_en=0
LOG_M=          6, di_count=26, bf1_bf=0, bf2_bf=0, bf1_count= 0, tw_sel=00, tw_num= 0, tw_addr= 0, mu_en=0
LOG_M=          4, di_count= 0, bf1_bf=0, bf2_bf=0, bf1_count= 0, tw_sel=00, tw_num= 0, tw_addr= 0, mu_en=0
LOG_M=          2, di_count= 0, bf1_bf=0, bf2_bf=0, bf1_count= 0, tw_sel=00, tw_num= 0, tw_addr= 0, mu_en=0
LOG_M=          6, di_count=27, bf1_bf=0, bf2_bf=0, bf1_count= 0, tw_sel=00, tw_num= 0, tw_addr= 0, mu_en=0
LOG_M=          4, di_count= 0, bf1_bf=0, bf2_bf=0, bf1_count= 0, tw_sel=00, tw_num= 0, tw_addr= 0, mu_en=0
LOG_M=          2, di_count= 0, bf1_bf=0, bf2_bf=0, bf1_count= 0, tw_sel=00, tw_num= 0, tw_addr= 0, mu_en=0
LOG_M=          6, di_count=28, bf1_bf=0, bf2_bf=0, bf1_count= 0, tw_sel=00, tw_num= 0, tw_addr= 0, mu_en=0
LOG_M=          4, di_count= 0, bf1_bf=0, bf2_bf=0, bf1_count= 0, tw_sel=00, tw_num= 0, tw_addr= 0, mu_en=0
LOG_M=          2, di_count= 0, bf1_bf=0, bf2_bf=0, bf1_count= 0, tw_sel=00, tw_num= 0, tw_addr= 0, mu_en=0
LOG_M=          6, di_count=29, bf1_bf=0, bf2_bf=0, bf1_count= 0, tw_sel=00, tw_num= 0, tw_addr= 0, mu_en=0
LOG_M=          4, di_count= 0, bf1_bf=0, bf2_bf=0, bf1_count= 0, tw_sel=00, tw_num= 0, tw_addr= 0, mu_en=0
LOG_M=          2, di_count= 0, bf1_bf=0, bf2_bf=0, bf1_count= 0, tw_sel=00, tw_num= 0, tw_addr= 0, mu_en=0
LOG_M=          6, di_count=30, bf1_bf=0, bf2_bf=0, bf1_count= 0, tw_sel=00, tw_num= 0, tw_addr= 0, mu_en=0
LOG_M=          4, di_count= 0, bf1_bf=0, bf2_bf=0, bf1_count= 0, tw_sel=00, tw_num= 0, tw_addr= 0, mu_en=0
LOG_M=          2, di_count= 0, bf1_bf=0, bf2_bf=0, bf1_count= 0, tw_sel=00, tw_num= 0, tw_addr= 0, mu_en=0
LOG_M=          6, di_count=31, bf1_bf=0, bf2_bf=0, bf1_count= 0, tw_sel=00, tw_num= 0, tw_addr= 0, mu_en=0
LOG_M=          4, di_count= 0, bf1_bf=0, bf2_bf=0, bf1_count= 0, tw_sel=00, tw_num= 0, tw_addr= 0, mu_en=0
LOG_M=          2, di_count= 0, bf1_bf=0, bf2_bf=0, bf1_count= 0, tw_sel=00, tw_num= 0, tw_addr= 0, mu_en=0
LOG_M=          6, di_count=32, bf1_bf=1, bf2_bf=0, bf1_count= 0, tw_sel=00, tw_num= 0, tw_addr= 0, mu_en=0
LOG_M=          4, di_count= 0, bf1_bf=0, bf2_bf=0, bf1_count= 0, tw_sel=00, tw_num= 0, tw_addr= 0, mu_en=0
LOG_M=          2, di_count= 0, bf1_bf=0, bf2_bf=0, bf1_count= 0, tw_sel=00, tw_num= 0, tw_addr= 0, mu_en=0
LOG_M=          6, di_count=33, bf1_bf=1, bf2_bf=0, bf1_count= 1, tw_sel=00, tw_num= 0, tw_addr= 0, mu_en=0
LOG_M=          4, di_count= 0, bf1_bf=0, bf2_bf=0, bf1_count= 0, tw_sel=00, tw_num= 0, tw_addr= 0, mu_en=0
LOG_M=          2, di_count= 0, bf1_bf=0, bf2_bf=0, bf1_count= 0, tw_sel=00, tw_num= 0, tw_addr= 0, mu_en=0
LOG_M=          6, di_count=34, bf1_bf=1, bf2_bf=0, bf1_count= 2, tw_sel=00, tw_num= 0, tw_addr= 0, mu_en=0
LOG_M=          4, di_count= 0, bf1_bf=0, bf2_bf=0, bf1_count= 0, tw_sel=00, tw_num= 0, tw_addr= 0, mu_en=0
LOG_M=          2, di_count= 0, bf1_bf=0, bf2_bf=0, bf1_count= 0, tw_sel=00, tw_num= 0, tw_addr= 0, mu_en=0
LOG_M=          6, di_count=35, bf1_bf=1, bf2_bf=0, bf1_count= 3, tw_sel=00, tw_num= 0, tw_addr= 0, mu_en=0
LOG_M=          4, di_count= 0, bf1_bf=0, bf2_bf=0, bf1_count= 0, tw_sel=00, tw_num= 0, tw_addr= 0, mu_en=0
LOG_M=          2, di_count= 0, bf1_bf=0, bf2_bf=0, bf1_count= 0, tw_sel=00, tw_num= 0, tw_addr= 0, mu_en=0
LOG_M=          6, di_count=36, bf1_bf=1, bf2_bf=0, bf1_count= 4, tw_sel=00, tw_num= 0, tw_addr= 0, mu_en=0
LOG_M=          4, di_count= 0, bf1_bf=0, bf2_bf=0, bf1_count= 0, tw_sel=00, tw_num= 0, tw_addr= 0, mu_en=0
LOG_M=          2, di_count= 0, bf1_bf=0, bf2_bf=0, bf1_count= 0, tw_sel=00, tw_num= 0, tw_addr= 0, mu_en=0
LOG_M=          6, di_count=37, bf1_bf=1, bf2_bf=0, bf1_count= 5, tw_sel=00, tw_num= 0, tw_addr= 0, mu_en=0
LOG_M=          4, di_count= 0, bf1_bf=0, bf2_bf=0, bf1_count= 0, tw_sel=00, tw_num= 0, tw_addr= 0, mu_en=0
LOG_M=          2, di_count= 0, bf1_bf=0, bf2_bf=0, bf1_count= 0, tw_sel=00, tw_num= 0, tw_addr= 0, mu_en=0
LOG_M=          6, di_count=38, bf1_bf=1, bf2_bf=0, bf1_count= 6, tw_sel=00, tw_num= 0, tw_addr= 0, mu_en=0
LOG_M=          4, di_count= 0, bf1_bf=0, bf2_bf=0, bf1_count= 0, tw_sel=00, tw_num= 0, tw_addr= 0, mu_en=0
LOG_M=          2, di_count= 0, bf1_bf=0, bf2_bf=0, bf1_count= 0, tw_sel=00, tw_num= 0, tw_addr= 0, mu_en=0
LOG_M=          6, di_count=39, bf1_bf=1, bf2_bf=0, bf1_count= 7, tw_sel=00, tw_num= 0, tw_addr= 0, mu_en=0
LOG_M=          4, di_count= 0, bf1_bf=0, bf2_bf=0, bf1_count= 0, tw_sel=00, tw_num= 0, tw_addr= 0, mu_en=0
LOG_M=          2, di_count= 0, bf1_bf=0, bf2_bf=0, bf1_count= 0, tw_sel=00, tw_num= 0, tw_addr= 0, mu_en=0
LOG_M=          6, di_count=40, bf1_bf=1, bf2_bf=0, bf1_count= 8, tw_sel=00, tw_num= 0, tw_addr= 0, mu_en=0
LOG_M=          4, di_count= 0, bf1_bf=0, bf2_bf=0, bf1_count= 0, tw_sel=00, tw_num= 0, tw_addr= 0, mu_en=0
LOG_M=          2, di_count= 0, bf1_bf=0, bf2_bf=0, bf1_count= 0, tw_sel=00, tw_num= 0, tw_addr= 0, mu_en=0
LOG_M=          6, di_count=41, bf1_bf=1, bf2_bf=0, bf1_count= 9, tw_sel=00, tw_num= 0, tw_addr= 0, mu_en=0
LOG_M=          4, di_count= 0, bf1_bf=0, bf2_bf=0, bf1_count= 0, tw_sel=00, tw_num= 0, tw_addr= 0, mu_en=0
LOG_M=          2, di_count= 0, bf1_bf=0, bf2_bf=0, bf1_count= 0, tw_sel=00, tw_num= 0, tw_addr= 0, mu_en=0
LOG_M=          6, di_count=42, bf1_bf=1, bf2_bf=0, bf1_count=10, tw_sel=00, tw_num= 0, tw_addr= 0, mu_en=0
LOG_M=          4, di_count= 0, bf1_bf=0, bf2_bf=0, bf1_count= 0, tw_sel=00, tw_num= 0, tw_addr= 0, mu_en=0
LOG_M=          2, di_count= 0, bf1_bf=0, bf2_bf=0, bf1_count= 0, tw_sel=00, tw_num= 0, tw_addr= 0, mu_en=0
LOG_M=          6, di_count=43, bf1_bf=1, bf2_bf=0, bf1_count=11, tw_sel=00, tw_num= 0, tw_addr= 0, mu_en=0
LOG_M=          4, di_count= 0, bf1_bf=0, bf2_bf=0, bf1_count= 0, tw_sel=00, tw_num= 0, tw_addr= 0, mu_en=0
LOG_M=          2, di_count= 0, bf1_bf=0, bf2_bf=0, bf1_count= 0, tw_sel=00, tw_num= 0, tw_addr= 0, mu_en=0
LOG_M=          6, di_count=44, bf1_bf=1, bf2_bf=0, bf1_count=12, tw_sel=00, tw_num= 0, tw_addr= 0, mu_en=0
LOG_M=          4, di_count= 0, bf1_bf=0, bf2_bf=0, bf1_count= 0, tw_sel=00, tw_num= 0, tw_addr= 0, mu_en=0
LOG_M=          2, di_count= 0, bf1_bf=0, bf2_bf=0, bf1_count= 0, tw_sel=00, tw_num= 0, tw_addr= 0, mu_en=0
LOG_M=          6, di_count=45, bf1_bf=1, bf2_bf=0, bf1_count=13, tw_sel=00, tw_num= 0, tw_addr= 0, mu_en=0
LOG_M=          4, di_count= 0, bf1_bf=0, bf2_bf=0, bf1_count= 0, tw_sel=00, tw_num= 0, tw_addr= 0, mu_en=0
LOG_M=          2, di_count= 0, bf1_bf=0, bf2_bf=0, bf1_count= 0, tw_sel=00, tw_num= 0, tw_addr= 0, mu_en=0
LOG_M=          6, di_count=46, bf1_bf=1, bf2_bf=0, bf1_count=14, tw_sel=00, tw_num= 0, tw_addr= 0, mu_en=0
LOG_M=          4, di_count= 0, bf1_bf=0, bf2_bf=0, bf1_count= 0, tw_sel=00, tw_num= 0, tw_addr= 0, mu_en=0
LOG_M=          2, di_count= 0, bf1_bf=0, bf2_bf=0, bf1_count= 0, tw_sel=00, tw_num= 0, tw_addr= 0, mu_en=0
LOG_M=          6, di_count=47, bf1_bf=1, bf2_bf=0, bf1_count=15, tw_sel=00, tw_num= 0, tw_addr= 0, mu_en=0
LOG_M=          4, di_count= 0, bf1_bf=0, bf2_bf=0, bf1_count= 0, tw_sel=00, tw_num= 0, tw_addr= 0, mu_en=0
LOG_M=          2, di_count= 0, bf1_bf=0, bf2_bf=0, bf1_count= 0, tw_sel=00, tw_num= 0, tw_addr= 0, mu_en=0
LOG_M=          6, di_count=48, bf1_bf=1, bf2_bf=0, bf1_count=16, tw_sel=00, tw_num= 0, tw_addr= 0, mu_en=0
LOG_M=          4, di_count= 0, bf1_bf=0, bf2_bf=0, bf1_count= 0, tw_sel=00, tw_num= 0, tw_addr= 0, mu_en=0
LOG_M=          2, di_count= 0, bf1_bf=0, bf2_bf=0, bf1_count= 0, tw_sel=00, tw_num= 0, tw_addr= 0, mu_en=0
LOG_M=          6, di_count=49, bf1_bf=1, bf2_bf=1, bf1_count=17, tw_sel=00, tw_num= 0, tw_addr= 0, mu_en=0
LOG_M=          4, di_count= 0, bf1_bf=0, bf2_bf=0, bf1_count= 0, tw_sel=00, tw_num= 0, tw_addr= 0, mu_en=0
LOG_M=          2, di_count= 0, bf1_bf=0, bf2_bf=0, bf1_count= 0, tw_sel=00, tw_num= 0, tw_addr= 0, mu_en=0
LOG_M=          6, di_count=50, bf1_bf=1, bf2_bf=1, bf1_count=18, tw_sel=00, tw_num= 1, tw_addr= 0, mu_en=0
LOG_M=          4, di_count= 0, bf1_bf=0, bf2_bf=0, bf1_count= 0, tw_sel=00, tw_num= 0, tw_addr= 0, mu_en=0
