r22sdf64/r22sdf64.sim/sim_1/behav/xsim/simulate.log
Time resolution is 1 ps
bf2_x0_re=    0, bf2_x0_im=    0, bf2_x1_re=    0, bf2_x1_im=    0, bf2_y0_re=    0, bf2_y0_im=    0, bf2_y1_re=    0, bf2_y1_im=    0
bf2_x0_re=    0, bf2_x0_im=    0, bf2_x1_re=    0, bf2_x1_im=    0, bf2_y0_re=    0, bf2_y0_im=    0, bf2_y1_re=    0, bf2_y1_im=    0
bf2_x0_re=    0, bf2_x0_im=    0, bf2_x1_re=    0, bf2_x1_im=    0, bf2_y0_re=    0, bf2_y0_im=    0, bf2_y1_re=    0, bf2_y1_im=    0
bf2_x0_re=    0, bf2_x0_im=    0, bf2_x1_re=    0, bf2_x1_im=    0, bf2_y0_re=    0, bf2_y0_im=    0, bf2_y1_re=    0, bf2_y1_im=    0
bf2_x0_re=    0, bf2_x0_im=    0, bf2_x1_re=    0, bf2_x1_im=    0, bf2_y0_re=    0, bf2_y0_im=    0, bf2_y1_re=    0, bf2_y1_im=    0
bf2_x0_re=    0, bf2_x0_im=    0, bf2_x1_re=    0, bf2_x1_im=    0, bf2_y0_re=    0, bf2_y0_im=    0, bf2_y1_re=    0, bf2_y1_im=    0
bf2_x0_re=    0, bf2_x0_im=    0, bf2_x1_re=    0, bf2_x1_im=    0, bf2_y0_re=    0, bf2_y0_im=    0, bf2_y1_re=    0, bf2_y1_im=    0
bf2_x0_re=    0, bf2_x0_im=    0, bf2_x1_re=    0, bf2_x1_im=    0, bf2_y0_re=    0, bf2_y0_im=    0, bf2_y1_re=    0, bf2_y1_im=    0
bf2_x0_re=    0, bf2_x0_im=    0, bf2_x1_re=    0, bf2_x1_im=    0, bf2_y0_re=    0, bf2_y0_im=    0, bf2_y1_re=    0, bf2_y1_im=    0
bf2_x0_re=    0, bf2_x0_im=    0, bf2_x1_re=    0, bf2_x1_im=    0, bf2_y0_re=    0, bf2_y0_im=    0, bf2_y1_re=    0, bf2_y1_im=    0
bf2_x0_re=    0, bf2_x0_im=    0, bf2_x1_re=    0, bf2_x1_im=    0, bf2_y0_re=    0, bf2_y0_im=    0, bf2_y1_re=    0, bf2_y1_im=    0
bf2_x0_re=    0, bf2_x0_im=    0, bf2_x1_re=    0, bf2_x1_im=    0, bf2_y0_re=    0, bf2_y0_im=    0, bf2_y1_re=    0, bf2_y1_im=    0
bf2_x0_re=    0, bf2_x0_im=    0, bf2_x1_re=    0, bf2_x1_im=    0, bf2_y0_re=    0, bf2_y0_im=    0, bf2_y1_re=    0, bf2_y1_im=    0
bf2_x0_re=    0, bf2_x0_im=    0, bf2_x1_re=    0, bf2_x1_im=    0, bf2_y0_re=    0, bf2_y0_im=    0, bf2_y1_re=    0, bf2_y1_im=    0
bf2_x0_re=    0, bf2_x0_im=    0, bf2_x1_re=    0, bf2_x1_im=    0, bf2_y0_re=    0, bf2_y0_im=    0, bf2_y1_re=    0, bf2_y1_im=    0
bf2_x0_re=    0, bf2_x0_im=    0, bf2_x1_re=    0, bf2_x1_im=    0, bf2_y0_re=    0, bf2_y0_im=    0, bf2_y1_re=    0, bf2_y1_im=    0
bf2_x0_re=    0, bf2_x0_im=    0, bf2_x1_re=    0, bf2_x1_im=    0, bf2_y0_re=    0, bf2_y0_im=    0, bf2_y1_re=    0, bf2_y1_im=    0
bf2_x0_re=    0, bf2_x0_im=    0, bf2_x1_re=    0, bf2_x1_im=    0, bf2_y0_re=    0, bf2_y0_im=    0, bf2_y1_re=    0, bf2_y1_im=    0
bf2_x0_re=    0, bf2_x0_im=    0, bf2_x1_re=    0, bf2_x1_im=    0, bf2_y0_re=    0, bf2_y0_im=    0, bf2_y1_re=    0, bf2_y1_im=    0
bf2_x0_re=    0, bf2_x0_im=    0, bf2_x1_re=    0, bf2_x1_im=    0, bf2_y0_re=    0, bf2_y0_im=    0, bf2_y1_re=    0, bf2_y1_im=    0
bf2_x0_re=    0, bf2_x0_im=    0, bf2_x1_re=    0, bf2_x1_im=    0, bf2_y0_re=    0, bf2_y0_im=    0, bf2_y1_re=    0, bf2_y1_im=    0
bf2_x0_re=    0, bf2_x0_im=    0, bf2_x1_re=    0, bf2_x1_im=    0, bf2_y0_re=    0, bf2_y0_im=    0, bf2_y1_re=    0, bf2_y1_im=    0
bf2_x0_re=    0, bf2_x0_im=    0, bf2_x1_re=    0, bf2_x1_im=    0, bf2_y0_re=    0, bf2_y0_im=    0, bf2_y1_re=    0, bf2_y1_im=    0
bf2_x0_re=    0, bf2_x0_im=    0, bf2_x1_re=    0, bf2_x1_im=    0, bf2_y0_re=    0, bf2_y0_im=    0, bf2_y1_re=    0, bf2_y1_im=    0
bf2_x0_re=    0, bf2_x0_im=    0, bf2_x1_re=    0, bf2_x1_im=    0, bf2_y0_re=    0, bf2_y0_im=    0, bf2_y1_re=    0, bf2_y1_im=    0
bf2_x0_re=    0, bf2_x0_im=    0, bf2_x1_re=    0, bf2_x1_im=    0, bf2_y0_re=    0, bf2_y0_im=    0, bf2_y1_re=    0, bf2_y1_im=    0
bf2_x0_re=    0, bf2_x0_im=    0, bf2_x1_re=    0, bf2_x1_im=    0, bf2_y0_re=    0, bf2_y0_im=    0, bf2_y1_re=    0, bf2_y1_im=    0
bf2_x0_re=    0, bf2_x0_im=    0, bf2_x1_re=    0, bf2_x1_im=    0, bf2_y0_re=    0, bf2_y0_im=    0, bf2_y1_re=    0, bf2_y1_im=    0
bf2_x0_re=    0, bf2_x0_im=    0, bf2_x1_re=    0, bf2_x1_im=    0, bf2_y0_re=    0, bf2_y0_im=    0, bf2_y1_re=    0, bf2_y1_im=    0
bf2_x0_re=    0, bf2_x0_im=    0, bf2_x1_re=    0, bf2_x1_im=    0, bf2_y0_re=    0, bf2_y0_im=    0, bf2_y1_re=    0, bf2_y1_im=    0
bf2_x0_re=    0, bf2_x0_im=    0, bf2_x1_re=    0, bf2_x1_im=    0, bf2_y0_re=    0, bf2_y0_im=    0, bf2_y1_re=    0, bf2_y1_im=    0
bf2_x0_re=32765, bf2_x0_im=    0, bf2_x1_re=    0, bf2_x1_im=    0, bf2_y0_re=16383, bf2_y0_im=    0, bf2_y1_re=16383, bf2_y1_im=    0
bf2_x0_re=    0, bf2_x0_im=    0, bf2_x1_re=    0, bf2_x1_im=    0, bf2_y0_re=    0, bf2_y0_im=    0, bf2_y1_re=    0, bf2_y1_im=    0
bf2_x0_re=32607, bf2_x0_im=    0, bf2_x1_re=    0, bf2_x1_im= 3212, bf2_y0_re=16304, bf2_y0_im= 1606, bf2_y1_re=16304, bf2_y1_im=63930
bf2_x0_re=    0, bf2_x0_im=    0, bf2_x1_re=    0, bf2_x1_im=    0, bf2_y0_re=    0, bf2_y0_im=    0, bf2_y1_re=    0, bf2_y1_im=    0
bf2_x0_re=    0, bf2_x0_im=    0, bf2_x1_re=    0, bf2_x1_im=    0, bf2_y0_re=    0, bf2_y0_im=    0, bf2_y1_re=    0, bf2_y1_im=    0
bf2_x0_re=32135, bf2_x0_im=    0, bf2_x1_re=    0, bf2_x1_im= 6392, bf2_y0_re=16068, bf2_y0_im= 3196, bf2_y1_re=16068, bf2_y1_im=62340
bf2_x0_re=    0, bf2_x0_im=    0, bf2_x1_re=    0, bf2_x1_im=    0, bf2_y0_re=    0, bf2_y0_im=    0, bf2_y1_re=    0, bf2_y1_im=    0
bf2_x0_re=31354, bf2_x0_im=    0, bf2_x1_re=    0, bf2_x1_im= 9511, bf2_y0_re=15677, bf2_y0_im= 4756, bf2_y1_re=15677, bf2_y1_im=60781
bf2_x0_re=    0, bf2_x0_im=    0, bf2_x1_re=    0, bf2_x1_im=    0, bf2_y0_re=    0, bf2_y0_im=    0, bf2_y1_re=    0, bf2_y1_im=    0
bf2_x0_re=30271, bf2_x0_im=    0, bf2_x1_re=    0, bf2_x1_im=12539, bf2_y0_re=15136, bf2_y0_im= 6270, bf2_y1_re=15136, bf2_y1_im=59267
bf2_x0_re=28896, bf2_x0_im=    0, bf2_x1_re=    0, bf2_x1_im=15445, bf2_y0_re=14448, bf2_y0_im= 7723, bf2_y1_re=14448, bf2_y1_im=57814
bf2_x0_re=    0, bf2_x0_im=    0, bf2_x1_re=    0, bf2_x1_im=    0, bf2_y0_re=    0, bf2_y0_im=    0, bf2_y1_re=    0, bf2_y1_im=    0
bf2_x0_re=27243, bf2_x0_im=    0, bf2_x1_re=    0, bf2_x1_im=18203, bf2_y0_re=13622, bf2_y0_im= 9102, bf2_y1_re=13622, bf2_y1_im=56435
bf2_x0_re=25327, bf2_x0_im=    0, bf2_x1_re=    0, bf2_x1_im=20786, bf2_y0_re=12664, bf2_y0_im=10393, bf2_y1_re=12664, bf2_y1_im=55143
bf2_x0_re=    0, bf2_x0_im=    0, bf2_x1_re=    0, bf2_x1_im=    0, bf2_y0_re=    0, bf2_y0_im=    0, bf2_y1_re=    0, bf2_y1_im=    0
bf2_x0_re=    0, bf2_x0_im=    0, bf2_x1_re=    0, bf2_x1_im=    0, bf2_y0_re=    0, bf2_y0_im=    0, bf2_y1_re=    0, bf2_y1_im=    0
bf2_x0_re=23168, bf2_x0_im=    0, bf2_x1_re=    0, bf2_x1_im=23168, bf2_y0_re=11584, bf2_y0_im=11584, bf2_y1_re=11584, bf2_y1_im=53952
bf2_x0_re=    0, bf2_x0_im=    0, bf2_x1_re=    0, bf2_x1_im=    0, bf2_y0_re=    0, bf2_y0_im=    0, bf2_y1_re=    0, bf2_y1_im=    0
bf2_x0_re=20786, bf2_x0_im=    0, bf2_x1_re=    0, bf2_x1_im=25327, bf2_y0_re=10393, bf2_y0_im=12664, bf2_y1_re=10393, bf2_y1_im=52873
bf2_x0_re=    0, bf2_x0_im=    0, bf2_x1_re=    0, bf2_x1_im=    0, bf2_y0_re=    0, bf2_y0_im=    0, bf2_y1_re=    0, bf2_y1_im=    0
bf2_x0_re=    0, bf2_x0_im=    0, bf2_x1_re=    0, bf2_x1_im=    0, bf2_y0_re=    0, bf2_y0_im=    0, bf2_y1_re=    0, bf2_y1_im=    0
bf2_x0_re=18203, bf2_x0_im=    0, bf2_x1_re=    0, bf2_x1_im=27243, bf2_y0_re= 9102, bf2_y0_im=13622, bf2_y1_re= 9102, bf2_y1_im=51915
bf2_x0_re=    0, bf2_x0_im=    0, bf2_x1_re=    0, bf2_x1_im=    0, bf2_y0_re=    0, bf2_y0_im=    0, bf2_y1_re=    0, bf2_y1_im=    0
bf2_x0_re=15445, bf2_x0_im=    0, bf2_x1_re=    0, bf2_x1_im=28896, bf2_y0_re= 7723, bf2_y0_im=14448, bf2_y1_re= 7723, bf2_y1_im=51088
bf2_x0_re=    0, bf2_x0_im=    0, bf2_x1_re=    0, bf2_x1_im=    0, bf2_y0_re=    0, bf2_y0_im=    0, bf2_y1_re=    0, bf2_y1_im=    0
bf2_x0_re=12539, bf2_x0_im=    0, bf2_x1_re=    0, bf2_x1_im=30271, bf2_y0_re= 6270, bf2_y0_im=15136, bf2_y1_re= 6270, bf2_y1_im=50401
bf2_x0_re= 9511, bf2_x0_im=    0, bf2_x1_re=    0, bf2_x1_im=31354, bf2_y0_re= 4756, bf2_y0_im=15677, bf2_y1_re= 4756, bf2_y1_im=49859
bf2_x0_re=    0, bf2_x0_im=    0, bf2_x1_re=    0, bf2_x1_im=    0, bf2_y0_re=    0, bf2_y0_im=    0, bf2_y1_re=    0, bf2_y1_im=    0
bf2_x0_re= 6392, bf2_x0_im=    0, bf2_x1_re=    0, bf2_x1_im=32135, bf2_y0_re= 3196, bf2_y0_im=16068, bf2_y1_re= 3196, bf2_y1_im=49469
bf2_x0_re= 3212, bf2_x0_im=    0, bf2_x1_re=    0, bf2_x1_im=32607, bf2_y0_re= 1606, bf2_y0_im=16304, bf2_y1_re= 1606, bf2_y1_im=49233
bf2_x0_re=16382, bf2_x0_im=65535, bf2_x1_re=16383, bf2_x1_im=65535, bf2_y0_re=16383, bf2_y0_im=65535, bf2_y1_re=    0, bf2_y1_im=    0
bf2_x0_re=    0, bf2_x0_im=    0, bf2_x1_re=    0, bf2_x1_im=    0, bf2_y0_re=    0, bf2_y0_im=    0, bf2_y1_re=    0, bf2_y1_im=    0
bf2_x0_re=16383, bf2_x0_im=65535, bf2_x1_re=16382, bf2_x1_im=65535, bf2_y0_re=16383, bf2_y0_im=65535, bf2_y1_re=    1, bf2_y1_im=    0
bf2_x0_re=16383, bf2_x0_im=65535, bf2_x1_re=16383, bf2_x1_im=65535, bf2_y0_re=16383, bf2_y0_im=65535, bf2_y1_re=    0, bf2_y1_im=    0
bf2_x0_re=    0, bf2_x0_im=    0, bf2_x1_re=    0, bf2_x1_im=    0, bf2_y0_re=    0, bf2_y0_im=    0, bf2_y1_re=    0, bf2_y1_im=    0
bf2_x0_re=16382, bf2_x0_im=65535, bf2_x1_re=16383, bf2_x1_im=65534, bf2_y0_re=16383, bf2_y0_im=65535, bf2_y1_re=    0, bf2_y1_im=    1
bf2_x0_re=    0, bf2_x0_im=    0, bf2_x1_re=    0, bf2_x1_im=    0, bf2_y0_re=    0, bf2_y0_im=    0, bf2_y1_re=    0, bf2_y1_im=    0
bf2_x0_re=16383, bf2_x0_im=65535, bf2_x1_re=16383, bf2_x1_im=65535, bf2_y0_re=16383, bf2_y0_im=65535, bf2_y1_re=    0, bf2_y1_im=    0
bf2_x0_re=    1, bf2_x0_im=    0, bf2_x1_re=    0, bf2_x1_im=    0, bf2_y0_re=    1, bf2_y0_im=    0, bf2_y1_re=    1, bf2_y1_im=    0
bf2_x0_re=    0, bf2_x0_im=    0, bf2_x1_re=    0, bf2_x1_im=    0, bf2_y0_re=    0, bf2_y0_im=    0, bf2_y1_re=    0, bf2_y1_im=    0
bf2_x0_re=    0, bf2_x0_im=65535, bf2_x1_re=    1, bf2_x1_im=    0, bf2_y0_re=    1, bf2_y0_im=    0, bf2_y1_re=    0, bf2_y1_im=    0
bf2_x0_re=    0, bf2_x0_im=    0, bf2_x1_re=    0, bf2_x1_im=    0, bf2_y0_re=    0, bf2_y0_im=    0, bf2_y1_re=    0, bf2_y1_im=    0
bf2_x0_re=    0, bf2_x0_im=    0, bf2_x1_re=    0, bf2_x1_im=65535, bf2_y0_re=    0, bf2_y0_im=    0, bf2_y1_re=    0, bf2_y1_im=    1
bf2_x0_re=65535, bf2_x0_im=    1, bf2_x1_re=65535, bf2_x1_im=    0, bf2_y0_re=65535, bf2_y0_im=    1, bf2_y1_re=    0, bf2_y1_im=    1
bf2_x0_re=    0, bf2_x0_im=    0, bf2_x1_re=    0, bf2_x1_im=    1, bf2_y0_re=    0, bf2_y0_im=    1, bf2_y1_re=    0, bf2_y1_im=    0
bf2_x0_re=    0, bf2_x0_im=    0, bf2_x1_re=    0, bf2_x1_im=65535, bf2_y0_re=    0, bf2_y0_im=    0, bf2_y1_re=    0, bf2_y1_im=    1
bf2_x0_re=    1, bf2_x0_im=65535, bf2_x1_re=    0, bf2_x1_im=65535, bf2_y0_re=    1, bf2_y0_im=65535, bf2_y1_re=    1, bf2_y1_im=    0
bf2_x0_re=    0, bf2_x0_im=    0, bf2_x1_re=65535, bf2_x1_im=    0, bf2_y0_re=    0, bf2_y0_im=    0, bf2_y1_re=    1, bf2_y1_im=    0
bf2_x0_re=    0, bf2_x0_im=65534, bf2_x1_re=    0, bf2_x1_im=65535, bf2_y0_re=    0, bf2_y0_im=65535, bf2_y1_re=    0, bf2_y1_im=    0
bf2_x0_re=    0, bf2_x0_im=    0, bf2_x1_re=    0, bf2_x1_im=    0, bf2_y0_re=    0, bf2_y0_im=    0, bf2_y1_re=    0, bf2_y1_im=    0
bf2_x0_re=    0, bf2_x0_im=65535, bf2_x1_re=    0, bf2_x1_im=65534, bf2_y0_re=    0, bf2_y0_im=65535, bf2_y1_re=    0, bf2_y1_im=    1
bf2_x0_re=    0, bf2_x0_im=    0, bf2_x1_re=    0, bf2_x1_im=65535, bf2_y0_re=    0, bf2_y0_im=    0, bf2_y1_re=    0, bf2_y1_im=    1
bf2_x0_re=    0, bf2_x0_im=    0, bf2_x1_re=    0, bf2_x1_im=    0, bf2_y0_re=    0, bf2_y0_im=    0, bf2_y1_re=    0, bf2_y1_im=    0
bf2_x0_re=    0, bf2_x0_im=65535, bf2_x1_re=65535, bf2_x1_im=65535, bf2_y0_re=    0, bf2_y0_im=65535, bf2_y1_re=    1, bf2_y1_im=    0
bf2_x0_re=    0, bf2_x0_im=    0, bf2_x1_re=    0, bf2_x1_im=    0, bf2_y0_re=    0, bf2_y0_im=    0, bf2_y1_re=    0, bf2_y1_im=    0
bf2_x0_re=    0, bf2_x0_im=    0, bf2_x1_re=    0, bf2_x1_im=    0, bf2_y0_re=    0, bf2_y0_im=    0, bf2_y1_re=    0, bf2_y1_im=    0
bf2_x0_re=    0, bf2_x0_im=    0, bf2_x1_re=    0, bf2_x1_im=    0, bf2_y0_re=    0, bf2_y0_im=    0, bf2_y1_re=    0, bf2_y1_im=    0
bf2_x0_re=    0, bf2_x0_im=    0, bf2_x1_re=    0, bf2_x1_im=    0, bf2_y0_re=    0, bf2_y0_im=    0, bf2_y1_re=    0, bf2_y1_im=    0
bf2_x0_re=    0, bf2_x0_im=65535, bf2_x1_re=    0, bf2_x1_im=65535, bf2_y0_re=    0, bf2_y0_im=65535, bf2_y1_re=    0, bf2_y1_im=    0
bf2_x0_re=    0, bf2_x0_im=    0, bf2_x1_re=    0, bf2_x1_im=    0, bf2_y0_re=    0, bf2_y0_im=    0, bf2_y1_re=    0, bf2_y1_im=    0
bf2_x0_re=    0, bf2_x0_im=    0, bf2_x1_re=    0, bf2_x1_im=    0, bf2_y0_re=    0, bf2_y0_im=    0, bf2_y1_re=    0, bf2_y1_im=    0
bf2_x0_re=16382, bf2_x0_im=    0, bf2_x1_re=49153, bf2_x1_im=    0, bf2_y0_re=    0, bf2_y0_im=    0, bf2_y1_re=16383, bf2_y1_im=    0
bf2_x0_re=    0, bf2_x0_im=    0, bf2_x1_re=    0, bf2_x1_im=    0, bf2_y0_re=    0, bf2_y0_im=    0, bf2_y1_re=    0, bf2_y1_im=    0
bf2_x0_re=    0, bf2_x0_im=    0, bf2_x1_re=    0, bf2_x1_im=    0, bf2_y0_re=    0, bf2_y0_im=    0, bf2_y1_re=    0, bf2_y1_im=    0
bf2_x0_re=15135, bf2_x0_im=59267, bf2_x1_re=50400, bf2_x1_im= 6269, bf2_y0_re=    0, bf2_y0_im=    0, bf2_y1_re=15136, bf2_y1_im=59267
bf2_x0_re=    0, bf2_x0_im=    0, bf2_x1_re=    0, bf2_x1_im=    0, bf2_y0_re=    0, bf2_y0_im=    0, bf2_y1_re=    0, bf2_y1_im=    0
bf2_x0_re=11585, bf2_x0_im=53952, bf2_x1_re=53951, bf2_x1_im=11584, bf2_y0_re=    0, bf2_y0_im=    0, bf2_y1_re=11585, bf2_y1_im=53952
bf2_x0_re=    1, bf2_x0_im=    0, bf2_x1_re=65535, bf2_x1_im=65535, bf2_y0_re=    0, bf2_y0_im=    0, bf2_y1_re=    1, bf2_y1_im=    1
bf2_x0_re=    0, bf2_x0_im=    0, bf2_x1_re=    0, bf2_x1_im=    0, bf2_y0_re=    0, bf2_y0_im=    0, bf2_y1_re=    0, bf2_y1_im=    0
bf2_x0_re= 6269, bf2_x0_im=50400, bf2_x1_re=59267, bf2_x1_im=15135, bf2_y0_re=    0, bf2_y0_im=    0, bf2_y1_re= 6269, bf2_y1_im=50401
bf2_x0_re=    0, bf2_x0_im=    0, bf2_x1_re=    0, bf2_x1_im=    0, bf2_y0_re=    0, bf2_y0_im=    0, bf2_y1_re=    0, bf2_y1_im=    0
bf2_x0_re=    0, bf2_x0_im=    0, bf2_x1_re=    0, bf2_x1_im=    0, bf2_y0_re=    0, bf2_y0_im=    0, bf2_y1_re=    0, bf2_y1_im=    0
bf2_x0_re=    0, bf2_x0_im=    0, bf2_x1_re=    0, bf2_x1_im=    0, bf2_y0_re=    0, bf2_y0_im=    0, bf2_y1_re=    0, bf2_y1_im=    0
bf2_x0_re=    0, bf2_x0_im=    0, bf2_x1_re=    0, bf2_x1_im=    0, bf2_y0_re=    0, bf2_y0_im=    0, bf2_y1_re=    0, bf2_y1_im=    0
bf2_x0_re=    0, bf2_x0_im=    0, bf2_x1_re=    0, bf2_x1_im=    0, bf2_y0_re=    0, bf2_y0_im=    0, bf2_y1_re=    0, bf2_y1_im=    0
bf2_x0_re=    0, bf2_x0_im=    0, bf2_x1_re=    0, bf2_x1_im=    0, bf2_y0_re=    0, bf2_y0_im=    0, bf2_y1_re=    0, bf2_y1_im=    0
bf2_x0_re=    0, bf2_x0_im=    0, bf2_x1_re=    0, bf2_x1_im=    0, bf2_y0_re=    0, bf2_y0_im=    0, bf2_y1_re=    0, bf2_y1_im=    0
bf2_x0_re=    0, bf2_x0_im=    0, bf2_x1_re=    0, bf2_x1_im=    0, bf2_y0_re=    0, bf2_y0_im=    0, bf2_y1_re=    0, bf2_y1_im=    0
bf2_x0_re=    0, bf2_x0_im=    0, bf2_x1_re=    0, bf2_x1_im=    0, bf2_y0_re=    0, bf2_y0_im=    0, bf2_y1_re=    0, bf2_y1_im=    0
bf2_x0_re=    0, bf2_x0_im=    0, bf2_x1_re=    0, bf2_x1_im=    0, bf2_y0_re=    0, bf2_y0_im=    0, bf2_y1_re=    0, bf2_y1_im=    0
bf2_x0_re=    0, bf2_x0_im=    0, bf2_x1_re=    0, bf2_x1_im=    0, bf2_y0_re=    0, bf2_y0_im=    0, bf2_y1_re=    0, bf2_y1_im=    0
bf2_x0_re=    0, bf2_x0_im=65535, bf2_x1_re=    1, bf2_x1_im=65535, bf2_y0_re=    1, bf2_y0_im=65535, bf2_y1_re=    0, bf2_y1_im=    0
bf2_x0_re=    0, bf2_x0_im=    0, bf2_x1_re=    0, bf2_x1_im=    0, bf2_y0_re=    0, bf2_y0_im=    0, bf2_y1_re=    0, bf2_y1_im=    0
bf2_x0_re=    0, bf2_x0_im=    0, bf2_x1_re=    0, bf2_x1_im=    0, bf2_y0_re=    0, bf2_y0_im=    0, bf2_y1_re=    0, bf2_y1_im=    0
bf2_x0_re=16382, bf2_x0_im=    1, bf2_x1_re=49153, bf2_x1_im=    0, bf2_y0_re=    0, bf2_y0_im=    1, bf2_y1_re=16383, bf2_y1_im=    1
bf2_x0_re=    0, bf2_x0_im=    0, bf2_x1_re=    0, bf2_x1_im=    0, bf2_y0_re=    0, bf2_y0_im=    0, bf2_y1_re=    0, bf2_y1_im=    0
bf2_x0_re=    0, bf2_x0_im=    0, bf2_x1_re=    0, bf2_x1_im=    0, bf2_y0_re=    0, bf2_y0_im=    0, bf2_y1_re=    0, bf2_y1_im=    0
bf2_x0_re=    0, bf2_x0_im=    0, bf2_x1_re=    0, bf2_x1_im=    0, bf2_y0_re=    0, bf2_y0_im=    0, bf2_y1_re=    0, bf2_y1_im=    0
bf2_x0_re=    0, bf2_x0_im=    0, bf2_x1_re=    0, bf2_x1_im=    0, bf2_y0_re=    0, bf2_y0_im=    0, bf2_y1_re=    0, bf2_y1_im=    0
bf2_x0_re=    0, bf2_x0_im=    0, bf2_x1_re=    0, bf2_x1_im=    0, bf2_y0_re=    0, bf2_y0_im=    0, bf2_y1_re=    0, bf2_y1_im=    0
bf2_x0_re=    0, bf2_x0_im=    0, bf2_x1_re=    0, bf2_x1_im=    0, bf2_y0_re=    0, bf2_y0_im=    0, bf2_y1_re=    0, bf2_y1_im=    0
bf2_x0_re=    0, bf2_x0_im=    0, bf2_x1_re=    0, bf2_x1_im=    0, bf2_y0_re=    0, bf2_y0_im=    0, bf2_y1_re=    0, bf2_y1_im=    0
bf2_x0_re=    0, bf2_x0_im=    0, bf2_x1_re=    0, bf2_x1_im=    0, bf2_y0_re=    0, bf2_y0_im=    0, bf2_y1_re=    0, bf2_y1_im=    0
bf2_x0_re=    0, bf2_x0_im=    0, bf2_x1_re=    0, bf2_x1_im=    0, bf2_y0_re=    0, bf2_y0_im=    0, bf2_y1_re=    0, bf2_y1_im=    0
bf2_x0_re=    0, bf2_x0_im=    0, bf2_x1_re=    0, bf2_x1_im=    0, bf2_y0_re=    0, bf2_y0_im=    0, bf2_y1_re=    0, bf2_y1_im=    0
bf2_x0_re=    0, bf2_x0_im=    0, bf2_x1_re=    0, bf2_x1_im=    0, bf2_y0_re=    0, bf2_y0_im=    0, bf2_y1_re=    0, bf2_y1_im=    0
bf2_x0_re=32765, bf2_x0_im=    0, bf2_x1_re=32771, bf2_x1_im=    0, bf2_y0_re=    0, bf2_y0_im=    0, bf2_y1_re=32765, bf2_y1_im=    0
bf2_x0_re=    0, bf2_x0_im=    0, bf2_x1_re=    0, bf2_x1_im=    0, bf2_y0_re=    0, bf2_y0_im=    0, bf2_y1_re=    0, bf2_y1_im=    0
bf2_x0_re= 3212, bf2_x0_im=32607, bf2_x1_re=62324, bf2_x1_im=32929, bf2_y0_re=    0, bf2_y0_im=    0, bf2_y1_re= 3212, bf2_y1_im=32607
bf2_x0_re=    0, bf2_x0_im=    0, bf2_x1_re=    0, bf2_x1_im=    0, bf2_y0_re=    0, bf2_y0_im=    0, bf2_y1_re=    0, bf2_y1_im=    0
bf2_x0_re=    0, bf2_x0_im=    0, bf2_x1_re=    0, bf2_x1_im=    0, bf2_y0_re=    0, bf2_y0_im=    0, bf2_y1_re=    0, bf2_y1_im=    0
bf2_x0_re=33401, bf2_x0_im= 6392, bf2_x1_re=32135, bf2_x1_im=59144, bf2_y0_re=    0, bf2_y0_im=    0, bf2_y1_re=33401, bf2_y1_im= 6392
bf2_x0_re=    0, bf2_x0_im=    0, bf2_x1_re=    0, bf2_x1_im=    0, bf2_y0_re=    0, bf2_y0_im=    0, bf2_y1_re=    0, bf2_y1_im=    0
bf2_x0_re=56025, bf2_x0_im=34182, bf2_x1_re= 9511, bf2_x1_im=31354, bf2_y0_re=    0, bf2_y0_im=    0, bf2_y1_re=56025, bf2_y1_im=34182
bf2_x0_re=    0, bf2_x0_im=    0, bf2_x1_re=    0, bf2_x1_im=    0, bf2_y0_re=    0, bf2_y0_im=    0, bf2_y1_re=    0, bf2_y1_im=    0
bf2_x0_re=30271, bf2_x0_im=52997, bf2_x1_re=35265, bf2_x1_im=12539, bf2_y0_re=    0, bf2_y0_im=    0, bf2_y1_re=30271, bf2_y1_im=52997
bf2_x0_re=15445, bf2_x0_im=28896, bf2_x1_re=50091, bf2_x1_im=36640, bf2_y0_re=    0, bf2_y0_im=    0, bf2_y1_re=15445, bf2_y1_im=28896
bf2_x0_re=    0, bf2_x0_im=    0, bf2_x1_re=    0, bf2_x1_im=    0, bf2_y0_re=    0, bf2_y0_im=    0, bf2_y1_re=    0, bf2_y1_im=    0
bf2_x0_re=38293, bf2_x0_im=18203, bf2_x1_re=27243, bf2_x1_im=47333, bf2_y0_re=    0, bf2_y0_im=    0, bf2_y1_re=38293, bf2_y1_im=18203
bf2_x0_re=44750, bf2_x0_im=40209, bf2_x1_re=20786, bf2_x1_im=25327, bf2_y0_re=    0, bf2_y0_im=    0, bf2_y1_re=44750, bf2_y1_im=40209
bf2_x0_re=    0, bf2_x0_im=    0, bf2_x1_re=    0, bf2_x1_im=    0, bf2_y0_re=    0, bf2_y0_im=    0, bf2_y1_re=    0, bf2_y1_im=    0
bf2_x0_re=    0, bf2_x0_im=    0, bf2_x1_re=    0, bf2_x1_im=    0, bf2_y0_re=    0, bf2_y0_im=    0, bf2_y1_re=    0, bf2_y1_im=    0
bf2_x0_re=23168, bf2_x0_im=42368, bf2_x1_re=42368, bf2_x1_im=23168, bf2_y0_re=    0, bf2_y0_im=    0, bf2_y1_re=23168, bf2_y1_im=42368
bf2_x0_re=    0, bf2_x0_im=    0, bf2_x1_re=    0, bf2_x1_im=    0, bf2_y0_re=    0, bf2_y0_im=    0, bf2_y1_re=    0, bf2_y1_im=    0
bf2_x0_re=25327, bf2_x0_im=20786, bf2_x1_re=40209, bf2_x1_im=44750, bf2_y0_re=    0, bf2_y0_im=    0, bf2_y1_re=25327, bf2_y1_im=20786
bf2_x0_re=    0, bf2_x0_im=    0, bf2_x1_re=    0, bf2_x1_im=    0, bf2_y0_re=    0, bf2_y0_im=    0, bf2_y1_re=    0, bf2_y1_im=    0
bf2_x0_re=    0, bf2_x0_im=    0, bf2_x1_re=    0, bf2_x1_im=    0, bf2_y0_re=    0, bf2_y0_im=    0, bf2_y1_re=    0, bf2_y1_im=    0
bf2_x0_re=47333, bf2_x0_im=27243, bf2_x1_re=18203, bf2_x1_im=38293, bf2_y0_re=    0, bf2_y0_im=    0, bf2_y1_re=47333, bf2_y1_im=27243
bf2_x0_re=    0, bf2_x0_im=    0, bf2_x1_re=    0, bf2_x1_im=    0, bf2_y0_re=    0, bf2_y0_im=    0, bf2_y1_re=    0, bf2_y1_im=    0
bf2_x0_re=36640, bf2_x0_im=50091, bf2_x1_re=28896, bf2_x1_im=15445, bf2_y0_re=    0, bf2_y0_im=    0, bf2_y1_re=36640, bf2_y1_im=50091
bf2_x0_re=    0, bf2_x0_im=    0, bf2_x1_re=    0, bf2_x1_im=    0, bf2_y0_re=    0, bf2_y0_im=    0, bf2_y1_re=    0, bf2_y1_im=    0
bf2_x0_re=12539, bf2_x0_im=35265, bf2_x1_re=52997, bf2_x1_im=30271, bf2_y0_re=    0, bf2_y0_im=    0, bf2_y1_re=12539, bf2_y1_im=35265
bf2_x0_re=31354, bf2_x0_im= 9511, bf2_x1_re=34182, bf2_x1_im=56025, bf2_y0_re=    0, bf2_y0_im=    0, bf2_y1_re=31354, bf2_y1_im= 9511
bf2_x0_re=    0, bf2_x0_im=    0, bf2_x1_re=    0, bf2_x1_im=    0, bf2_y0_re=    0, bf2_y0_im=    0, bf2_y1_re=    0, bf2_y1_im=    0
