r22sdf.sim/sim_1/behav/xsim/simulate.log
Time resolution is 1 ps
clock_counter=          x, di_re=xxxxxxxxxxxxxx, do_re=xxxxxxxxxxxxxx, do_im=xxxxxxxxxxxxxx
clock_counter=          0, di_re=xxxxxxxxxxxxxx, do_re=xxxxxxxxxxxxxx, do_im=xxxxxxxxxxxxxx
clock_counter=          1, di_re=xxxxxxxxxxxxxx, do_re=xxxxxxxxxxxxxx, do_im=xxxxxxxxxxxxxx
clock_counter=          2, di_re=xxxxxxxxxxxxxx, do_re=xxxxxxxxxxxxxx, do_im=xxxxxxxxxxxxxx
clock_counter=          3, di_re=xxxxxxxxxxxxxx, do_re=xxxxxxxxxxxxxx, do_im=xxxxxxxxxxxxxx
clock_counter=          4, di_re=xxxxxxxxxxxxxx, do_re=xxxxxxxxxxxxxx, do_im=xxxxxxxxxxxxxx
clock_counter=          5, di_re=xxxxxxxxxxxxxx, do_re=xxxxxxxxxxxxxx, do_im=xxxxxxxxxxxxxx
clock_counter=          6, di_re=xxxxxxxxxxxxxx, do_re=xxxxxxxxxxxxxx, do_im=xxxxxxxxxxxxxx
clock_counter=          7, di_re=xxxxxxxxxxxxxx, do_re=xxxxxxxxxxxxxx, do_im=xxxxxxxxxxxxxx
clock_counter=          8, di_re=xxxxxxxxxxxxxx, do_re=xxxxxxxxxxxxxx, do_im=xxxxxxxxxxxxxx
clock_counter=          9, di_re=xxxxxxxxxxxxxx, do_re=xxxxxxxxxxxxxx, do_im=xxxxxxxxxxxxxx
clock_counter=         10, di_re=01111111111111, do_re=xxxxxxxxxxxxxx, do_im=xxxxxxxxxxxxxx
clock_counter=         11, di_re=01111111111111, do_re=xxxxxxxxxxxxxx, do_im=xxxxxxxxxxxxxx
clock_counter=         12, di_re=01111111111110, do_re=xxxxxxxxxxxxxx, do_im=xxxxxxxxxxxxxx
clock_counter=         13, di_re=01111111111101, do_re=xxxxxxxxxxxxxx, do_im=xxxxxxxxxxxxxx
clock_counter=         14, di_re=01111111111100, do_re=xxxxxxxxxxxxxx, do_im=xxxxxxxxxxxxxx
clock_counter=         15, di_re=01111111111011, do_re=xxxxxxxxxxxxxx, do_im=xxxxxxxxxxxxxx
clock_counter=         16, di_re=01111111111001, do_re=xxxxxxxxxxxxxx, do_im=xxxxxxxxxxxxxx
clock_counter=         17, di_re=01111111110111, do_re=xxxxxxxxxxxxxx, do_im=xxxxxxxxxxxxxx
clock_counter=         18, di_re=01111111110101, do_re=xxxxxxxxxxxxxx, do_im=xxxxxxxxxxxxxx
clock_counter=         19, di_re=01111111110010, do_re=xxxxxxxxxxxxxx, do_im=xxxxxxxxxxxxxx
clock_counter=         20, di_re=01111111101111, do_re=xxxxxxxxxxxxxx, do_im=xxxxxxxxxxxxxx
clock_counter=         21, di_re=01111111101100, do_re=xxxxxxxxxxxxxx, do_im=xxxxxxxxxxxxxx
clock_counter=         22, di_re=01111111101000, do_re=xxxxxxxxxxxxxx, do_im=xxxxxxxxxxxxxx
clock_counter=         23, di_re=01111111100101, do_re=xxxxxxxxxxxxxx, do_im=xxxxxxxxxxxxxx
clock_counter=         24, di_re=01111111100000, do_re=xxxxxxxxxxxxxx, do_im=xxxxxxxxxxxxxx
clock_counter=         25, di_re=01111111011100, do_re=xxxxxxxxxxxxxx, do_im=xxxxxxxxxxxxxx
clock_counter=         26, di_re=01111111010111, do_re=xxxxxxxxxxxxxx, do_im=xxxxxxxxxxxxxx
clock_counter=         27, di_re=01111111010010, do_re=xxxxxxxxxxxxxx, do_im=xxxxxxxxxxxxxx
clock_counter=         28, di_re=01111111001101, do_re=xxxxxxxxxxxxxx, do_im=xxxxxxxxxxxxxx
clock_counter=         29, di_re=01111111000111, do_re=xxxxxxxxxxxxxx, do_im=xxxxxxxxxxxxxx
clock_counter=         30, di_re=01111111000001, do_re=xxxxxxxxxxxxxx, do_im=xxxxxxxxxxxxxx
clock_counter=         31, di_re=01111110111011, do_re=xxxxxxxxxxxxxx, do_im=xxxxxxxxxxxxxx
clock_counter=         32, di_re=01111110110100, do_re=xxxxxxxxxxxxxx, do_im=xxxxxxxxxxxxxx
clock_counter=         33, di_re=01111110101101, do_re=xxxxxxxxxxxxxx, do_im=xxxxxxxxxxxxxx
clock_counter=         34, di_re=01111110100110, do_re=xxxxxxxxxxxxxx, do_im=xxxxxxxxxxxxxx
clock_counter=         35, di_re=01111110011110, do_re=xxxxxxxxxxxxxx, do_im=xxxxxxxxxxxxxx
clock_counter=         36, di_re=01111110010111, do_re=xxxxxxxxxxxxxx, do_im=xxxxxxxxxxxxxx
clock_counter=         37, di_re=01111110001111, do_re=xxxxxxxxxxxxxx, do_im=xxxxxxxxxxxxxx
clock_counter=         38, di_re=01111110000110, do_re=xxxxxxxxxxxxxx, do_im=xxxxxxxxxxxxxx
clock_counter=         39, di_re=01111101111101, do_re=xxxxxxxxxxxxxx, do_im=xxxxxxxxxxxxxx
clock_counter=         40, di_re=01111101110100, do_re=xxxxxxxxxxxxxx, do_im=xxxxxxxxxxxxxx
clock_counter=         41, di_re=01111101101011, do_re=xxxxxxxxxxxxxx, do_im=xxxxxxxxxxxxxx
clock_counter=         42, di_re=01111101100001, do_re=xxxxxxxxxxxxxx, do_im=xxxxxxxxxxxxxx
clock_counter=         43, di_re=01111101010111, do_re=xxxxxxxxxxxxxx, do_im=xxxxxxxxxxxxxx
clock_counter=         44, di_re=01111101001101, do_re=xxxxxxxxxxxxxx, do_im=xxxxxxxxxxxxxx
clock_counter=         45, di_re=01111101000011, do_re=xxxxxxxxxxxxxx, do_im=xxxxxxxxxxxxxx
clock_counter=         46, di_re=01111100111000, do_re=xxxxxxxxxxxxxx, do_im=xxxxxxxxxxxxxx
clock_counter=         47, di_re=01111100101100, do_re=xxxxxxxxxxxxxx, do_im=xxxxxxxxxxxxxx
clock_counter=         48, di_re=01111100100001, do_re=xxxxxxxxxxxxxx, do_im=xxxxxxxxxxxxxx
clock_counter=         49, di_re=01111100010101, do_re=xxxxxxxxxxxxxx, do_im=xxxxxxxxxxxxxx
clock_counter=         50, di_re=01111100001001, do_re=xxxxxxxxxxxxxx, do_im=xxxxxxxxxxxxxx
clock_counter=         51, di_re=01111011111101, do_re=xxxxxxxxxxxxxx, do_im=xxxxxxxxxxxxxx
clock_counter=         52, di_re=01111011110000, do_re=xxxxxxxxxxxxxx, do_im=xxxxxxxxxxxxxx
clock_counter=         53, di_re=01111011100011, do_re=xxxxxxxxxxxxxx, do_im=xxxxxxxxxxxxxx
clock_counter=         54, di_re=01111011010110, do_re=xxxxxxxxxxxxxx, do_im=xxxxxxxxxxxxxx
clock_counter=         55, di_re=01111011001000, do_re=xxxxxxxxxxxxxx, do_im=xxxxxxxxxxxxxx
clock_counter=         56, di_re=01111010111011, do_re=xxxxxxxxxxxxxx, do_im=xxxxxxxxxxxxxx
clock_counter=         57, di_re=01111010101100, do_re=xxxxxxxxxxxxxx, do_im=xxxxxxxxxxxxxx
clock_counter=         58, di_re=01111010011110, do_re=xxxxxxxxxxxxxx, do_im=xxxxxxxxxxxxxx
clock_counter=         59, di_re=01111010001111, do_re=xxxxxxxxxxxxxx, do_im=xxxxxxxxxxxxxx
clock_counter=         60, di_re=01111010000000, do_re=xxxxxxxxxxxxxx, do_im=xxxxxxxxxxxxxx
clock_counter=         61, di_re=01111001110001, do_re=xxxxxxxxxxxxxx, do_im=xxxxxxxxxxxxxx
clock_counter=         62, di_re=01111001100001, do_re=xxxxxxxxxxxxxx, do_im=xxxxxxxxxxxxxx
clock_counter=         63, di_re=01111001010001, do_re=xxxxxxxxxxxxxx, do_im=xxxxxxxxxxxxxx
clock_counter=         64, di_re=01111001000001, do_re=xxxxxxxxxxxxxx, do_im=xxxxxxxxxxxxxx
clock_counter=         65, di_re=01111000110001, do_re=xxxxxxxxxxxxxx, do_im=xxxxxxxxxxxxxx
clock_counter=         66, di_re=01111000100000, do_re=xxxxxxxxxxxxxx, do_im=xxxxxxxxxxxxxx
clock_counter=         67, di_re=01111000001111, do_re=xxxxxxxxxxxxxx, do_im=xxxxxxxxxxxxxx
clock_counter=         68, di_re=01110111111101, do_re=xxxxxxxxxxxxxx, do_im=xxxxxxxxxxxxxx
clock_counter=         69, di_re=01110111101100, do_re=xxxxxxxxxxxxxx, do_im=xxxxxxxxxxxxxx
clock_counter=         70, di_re=01110111011010, do_re=xxxxxxxxxxxxxx, do_im=xxxxxxxxxxxxxx
clock_counter=         71, di_re=01110111001000, do_re=xxxxxxxxxxxxxx, do_im=xxxxxxxxxxxxxx
clock_counter=         72, di_re=01110110110101, do_re=xxxxxxxxxxxxxx, do_im=xxxxxxxxxxxxxx
clock_counter=         73, di_re=01110110100010, do_re=xxxxxxxxxxxxxx, do_im=xxxxxxxxxxxxxx
clock_counter=         74, di_re=01110110001111, do_re=xxxxxxxxxxxxxx, do_im=xxxxxxxxxxxxxx
clock_counter=         75, di_re=01110101111100, do_re=xxxxxxxxxxxxxx, do_im=xxxxxxxxxxxxxx
clock_counter=         76, di_re=01110101101000, do_re=xxxxxxxxxxxxxx, do_im=xxxxxxxxxxxxxx
clock_counter=         77, di_re=01110101010100, do_re=xxxxxxxxxxxxxx, do_im=xxxxxxxxxxxxxx
clock_counter=         78, di_re=01110101000000, do_re=xxxxxxxxxxxxxx, do_im=xxxxxxxxxxxxxx
clock_counter=         79, di_re=01110100101011, do_re=xxxxxxxxxxxxxx, do_im=xxxxxxxxxxxxxx
clock_counter=         80, di_re=01110100010111, do_re=xxxxxxxxxxxxxx, do_im=xxxxxxxxxxxxxx
clock_counter=         81, di_re=01110100000010, do_re=xxxxxxxxxxxxxx, do_im=xxxxxxxxxxxxxx
clock_counter=         82, di_re=01110011101100, do_re=xxxxxxxxxxxxxx, do_im=xxxxxxxxxxxxxx
clock_counter=         83, di_re=01110011010111, do_re=xxxxxxxxxxxxxx, do_im=xxxxxxxxxxxxxx
clock_counter=         84, di_re=01110011000001, do_re=xxxxxxxxxxxxxx, do_im=xxxxxxxxxxxxxx
clock_counter=         85, di_re=01110010101011, do_re=xxxxxxxxxxxxxx, do_im=xxxxxxxxxxxxxx
clock_counter=         86, di_re=01110010010100, do_re=xxxxxxxxxxxxxx, do_im=xxxxxxxxxxxxxx
clock_counter=         87, di_re=01110001111101, do_re=xxxxxxxxxxxxxx, do_im=xxxxxxxxxxxxxx
clock_counter=         88, di_re=01110001100110, do_re=xxxxxxxxxxxxxx, do_im=xxxxxxxxxxxxxx
clock_counter=         89, di_re=01110001001111, do_re=xxxxxxxxxxxxxx, do_im=xxxxxxxxxxxxxx
clock_counter=         90, di_re=01110000110111, do_re=xxxxxxxxxxxxxx, do_im=xxxxxxxxxxxxxx
clock_counter=         91, di_re=01110000100000, do_re=xxxxxxxxxxxxxx, do_im=xxxxxxxxxxxxxx
clock_counter=         92, di_re=01110000001000, do_re=xxxxxxxxxxxxxx, do_im=xxxxxxxxxxxxxx
clock_counter=         93, di_re=01101111101111, do_re=xxxxxxxxxxxxxx, do_im=xxxxxxxxxxxxxx
clock_counter=         94, di_re=01101111010111, do_re=xxxxxxxxxxxxxx, do_im=xxxxxxxxxxxxxx
clock_counter=         95, di_re=01101110111110, do_re=xxxxxxxxxxxxxx, do_im=xxxxxxxxxxxxxx
clock_counter=         96, di_re=01101110100100, do_re=xxxxxxxxxxxxxx, do_im=xxxxxxxxxxxxxx
clock_counter=         97, di_re=01101110001011, do_re=xxxxxxxxxxxxxx, do_im=xxxxxxxxxxxxxx
clock_counter=         98, di_re=01101101110001, do_re=xxxxxxxxxxxxxx, do_im=xxxxxxxxxxxxxx
clock_counter=         99, di_re=01101101010111, do_re=xxxxxxxxxxxxxx, do_im=xxxxxxxxxxxxxx
clock_counter=        100, di_re=01101100111101, do_re=xxxxxxxxxxxxxx, do_im=xxxxxxxxxxxxxx
clock_counter=        101, di_re=01101100100011, do_re=xxxxxxxxxxxxxx, do_im=xxxxxxxxxxxxxx
clock_counter=        102, di_re=01101100001000, do_re=xxxxxxxxxxxxxx, do_im=xxxxxxxxxxxxxx
clock_counter=        103, di_re=01101011101101, do_re=xxxxxxxxxxxxxx, do_im=xxxxxxxxxxxxxx
clock_counter=        104, di_re=01101011010010, do_re=xxxxxxxxxxxxxx, do_im=xxxxxxxxxxxxxx
clock_counter=        105, di_re=01101010110110, do_re=xxxxxxxxxxxxxx, do_im=xxxxxxxxxxxxxx
clock_counter=        106, di_re=01101010011010, do_re=xxxxxxxxxxxxxx, do_im=xxxxxxxxxxxxxx
clock_counter=        107, di_re=01101001111110, do_re=xxxxxxxxxxxxxx, do_im=xxxxxxxxxxxxxx
clock_counter=        108, di_re=01101001100010, do_re=xxxxxxxxxxxxxx, do_im=xxxxxxxxxxxxxx
clock_counter=        109, di_re=01101001000101, do_re=xxxxxxxxxxxxxx, do_im=xxxxxxxxxxxxxx
clock_counter=        110, di_re=01101000101000, do_re=xxxxxxxxxxxxxx, do_im=xxxxxxxxxxxxxx
clock_counter=        111, di_re=01101000001011, do_re=xxxxxxxxxxxxxx, do_im=xxxxxxxxxxxxxx
clock_counter=        112, di_re=01100111101110, do_re=xxxxxxxxxxxxxx, do_im=xxxxxxxxxxxxxx
clock_counter=        113, di_re=01100111010001, do_re=xxxxxxxxxxxxxx, do_im=xxxxxxxxxxxxxx
clock_counter=        114, di_re=01100110110011, do_re=xxxxxxxxxxxxxx, do_im=xxxxxxxxxxxxxx
clock_counter=        115, di_re=01100110010101, do_re=xxxxxxxxxxxxxx, do_im=xxxxxxxxxxxxxx
clock_counter=        116, di_re=01100101110110, do_re=xxxxxxxxxxxxxx, do_im=xxxxxxxxxxxxxx
clock_counter=        117, di_re=01100101011000, do_re=xxxxxxxxxxxxxx, do_im=xxxxxxxxxxxxxx
clock_counter=        118, di_re=01100100111001, do_re=xxxxxxxxxxxxxx, do_im=xxxxxxxxxxxxxx
clock_counter=        119, di_re=01100100011010, do_re=xxxxxxxxxxxxxx, do_im=xxxxxxxxxxxxxx
clock_counter=        120, di_re=01100011111011, do_re=xxxxxxxxxxxxxx, do_im=xxxxxxxxxxxxxx
clock_counter=        121, di_re=01100011011011, do_re=xxxxxxxxxxxxxx, do_im=xxxxxxxxxxxxxx
clock_counter=        122, di_re=01100010111011, do_re=xxxxxxxxxxxxxx, do_im=xxxxxxxxxxxxxx
clock_counter=        123, di_re=01100010011011, do_re=xxxxxxxxxxxxxx, do_im=xxxxxxxxxxxxxx
clock_counter=        124, di_re=01100001111011, do_re=xxxxxxxxxxxxxx, do_im=xxxxxxxxxxxxxx
clock_counter=        125, di_re=01100001011011, do_re=xxxxxxxxxxxxxx, do_im=xxxxxxxxxxxxxx
clock_counter=        126, di_re=01100000111010, do_re=xxxxxxxxxxxxxx, do_im=xxxxxxxxxxxxxx
clock_counter=        127, di_re=01100000011001, do_re=xxxxxxxxxxxxxx, do_im=xxxxxxxxxxxxxx
clock_counter=        128, di_re=01011111111000, do_re=xxxxxxxxxxxxxx, do_im=xxxxxxxxxxxxxx
clock_counter=        129, di_re=01011111010110, do_re=xxxxxxxxxxxxxx, do_im=xxxxxxxxxxxxxx
clock_counter=        130, di_re=01011110110101, do_re=xxxxxxxxxxxxxx, do_im=xxxxxxxxxxxxxx
clock_counter=        131, di_re=01011110010011, do_re=xxxxxxxxxxxxxx, do_im=xxxxxxxxxxxxxx
clock_counter=        132, di_re=01011101110001, do_re=xxxxxxxxxxxxxx, do_im=xxxxxxxxxxxxxx
clock_counter=        133, di_re=01011101001110, do_re=xxxxxxxxxxxxxx, do_im=xxxxxxxxxxxxxx
clock_counter=        134, di_re=01011100101100, do_re=xxxxxxxxxxxxxx, do_im=xxxxxxxxxxxxxx
clock_counter=        135, di_re=01011100001001, do_re=xxxxxxxxxxxxxx, do_im=xxxxxxxxxxxxxx
clock_counter=        136, di_re=01011011100110, do_re=xxxxxxxxxxxxxx, do_im=xxxxxxxxxxxxxx
clock_counter=        137, di_re=01011011000011, do_re=xxxxxxxxxxxxxx, do_im=xxxxxxxxxxxxxx
clock_counter=        138, di_re=01011010100000, do_re=xxxxxxxxxxxxxx, do_im=xxxxxxxxxxxxxx
clock_counter=        139, di_re=01011001111100, do_re=xxxxxxxxxxxxxx, do_im=xxxxxxxxxxxxxx
clock_counter=        140, di_re=01011001011000, do_re=xxxxxxxxxxxxxx, do_im=xxxxxxxxxxxxxx
clock_counter=        141, di_re=01011000110100, do_re=xxxxxxxxxxxxxx, do_im=xxxxxxxxxxxxxx
clock_counter=        142, di_re=01011000010000, do_re=xxxxxxxxxxxxxx, do_im=xxxxxxxxxxxxxx
clock_counter=        143, di_re=01010111101011, do_re=xxxxxxxxxxxxxx, do_im=xxxxxxxxxxxxxx
clock_counter=        144, di_re=01010111000110, do_re=xxxxxxxxxxxxxx, do_im=xxxxxxxxxxxxxx
clock_counter=        145, di_re=01010110100001, do_re=xxxxxxxxxxxxxx, do_im=xxxxxxxxxxxxxx
clock_counter=        146, di_re=01010101111100, do_re=xxxxxxxxxxxxxx, do_im=xxxxxxxxxxxxxx
clock_counter=        147, di_re=01010101010111, do_re=xxxxxxxxxxxxxx, do_im=xxxxxxxxxxxxxx
clock_counter=        148, di_re=01010100110001, do_re=xxxxxxxxxxxxxx, do_im=xxxxxxxxxxxxxx
clock_counter=        149, di_re=01010100001100, do_re=xxxxxxxxxxxxxx, do_im=xxxxxxxxxxxxxx
clock_counter=        150, di_re=01010011100110, do_re=xxxxxxxxxxxxxx, do_im=xxxxxxxxxxxxxx
clock_counter=        151, di_re=01010011000000, do_re=xxxxxxxxxxxxxx, do_im=xxxxxxxxxxxxxx
clock_counter=        152, di_re=01010010011001, do_re=xxxxxxxxxxxxxx, do_im=xxxxxxxxxxxxxx
clock_counter=        153, di_re=01010001110011, do_re=xxxxxxxxxxxxxx, do_im=xxxxxxxxxxxxxx
clock_counter=        154, di_re=01010001001100, do_re=xxxxxxxxxxxxxx, do_im=xxxxxxxxxxxxxx
clock_counter=        155, di_re=01010000100101, do_re=xxxxxxxxxxxxxx, do_im=xxxxxxxxxxxxxx
clock_counter=        156, di_re=01001111111110, do_re=xxxxxxxxxxxxxx, do_im=xxxxxxxxxxxxxx
clock_counter=        157, di_re=01001111010111, do_re=xxxxxxxxxxxxxx, do_im=xxxxxxxxxxxxxx
clock_counter=        158, di_re=01001110101111, do_re=xxxxxxxxxxxxxx, do_im=xxxxxxxxxxxxxx
clock_counter=        159, di_re=01001110000111, do_re=xxxxxxxxxxxxxx, do_im=xxxxxxxxxxxxxx
clock_counter=        160, di_re=01001101011111, do_re=xxxxxxxxxxxxxx, do_im=xxxxxxxxxxxxxx
clock_counter=        161, di_re=01001100110111, do_re=xxxxxxxxxxxxxx, do_im=xxxxxxxxxxxxxx
clock_counter=        162, di_re=01001100001111, do_re=xxxxxxxxxxxxxx, do_im=xxxxxxxxxxxxxx
clock_counter=        163, di_re=01001011100111, do_re=xxxxxxxxxxxxxx, do_im=xxxxxxxxxxxxxx
clock_counter=        164, di_re=01001010111110, do_re=xxxxxxxxxxxxxx, do_im=xxxxxxxxxxxxxx
clock_counter=        165, di_re=01001010010101, do_re=xxxxxxxxxxxxxx, do_im=xxxxxxxxxxxxxx
clock_counter=        166, di_re=01001001101100, do_re=xxxxxxxxxxxxxx, do_im=xxxxxxxxxxxxxx
clock_counter=        167, di_re=01001001000011, do_re=xxxxxxxxxxxxxx, do_im=xxxxxxxxxxxxxx
clock_counter=        168, di_re=01001000011010, do_re=xxxxxxxxxxxxxx, do_im=xxxxxxxxxxxxxx
clock_counter=        169, di_re=01000111110000, do_re=xxxxxxxxxxxxxx, do_im=xxxxxxxxxxxxxx
clock_counter=        170, di_re=01000111000110, do_re=xxxxxxxxxxxxxx, do_im=xxxxxxxxxxxxxx
clock_counter=        171, di_re=01000110011100, do_re=xxxxxxxxxxxxxx, do_im=xxxxxxxxxxxxxx
clock_counter=        172, di_re=01000101110010, do_re=xxxxxxxxxxxxxx, do_im=xxxxxxxxxxxxxx
clock_counter=        173, di_re=01000101001000, do_re=xxxxxxxxxxxxxx, do_im=xxxxxxxxxxxxxx
clock_counter=        174, di_re=01000100011110, do_re=xxxxxxxxxxxxxx, do_im=xxxxxxxxxxxxxx
clock_counter=        175, di_re=01000011110011, do_re=xxxxxxxxxxxxxx, do_im=xxxxxxxxxxxxxx
clock_counter=        176, di_re=01000011001001, do_re=xxxxxxxxxxxxxx, do_im=xxxxxxxxxxxxxx
clock_counter=        177, di_re=01000010011110, do_re=xxxxxxxxxxxxxx, do_im=xxxxxxxxxxxxxx
clock_counter=        178, di_re=01000001110011, do_re=xxxxxxxxxxxxxx, do_im=xxxxxxxxxxxxxx
clock_counter=        179, di_re=01000001000111, do_re=xxxxxxxxxxxxxx, do_im=xxxxxxxxxxxxxx
clock_counter=        180, di_re=01000000011100, do_re=xxxxxxxxxxxxxx, do_im=xxxxxxxxxxxxxx
clock_counter=        181, di_re=00111111110001, do_re=xxxxxxxxxxxxxx, do_im=xxxxxxxxxxxxxx
clock_counter=        182, di_re=00111111000101, do_re=xxxxxxxxxxxxxx, do_im=xxxxxxxxxxxxxx
clock_counter=        183, di_re=00111110011001, do_re=xxxxxxxxxxxxxx, do_im=xxxxxxxxxxxxxx
clock_counter=        184, di_re=00111101101101, do_re=xxxxxxxxxxxxxx, do_im=xxxxxxxxxxxxxx
clock_counter=        185, di_re=00111101000001, do_re=xxxxxxxxxxxxxx, do_im=xxxxxxxxxxxxxx
clock_counter=        186, di_re=00111100010101, do_re=xxxxxxxxxxxxxx, do_im=xxxxxxxxxxxxxx
clock_counter=        187, di_re=00111011101000, do_re=xxxxxxxxxxxxxx, do_im=xxxxxxxxxxxxxx
clock_counter=        188, di_re=00111010111100, do_re=xxxxxxxxxxxxxx, do_im=xxxxxxxxxxxxxx
clock_counter=        189, di_re=00111010001111, do_re=xxxxxxxxxxxxxx, do_im=xxxxxxxxxxxxxx
clock_counter=        190, di_re=00111001100010, do_re=xxxxxxxxxxxxxx, do_im=xxxxxxxxxxxxxx
clock_counter=        191, di_re=00111000110101, do_re=xxxxxxxxxxxxxx, do_im=xxxxxxxxxxxxxx
clock_counter=        192, di_re=00111000001000, do_re=xxxxxxxxxxxxxx, do_im=xxxxxxxxxxxxxx
clock_counter=        193, di_re=00110111011011, do_re=xxxxxxxxxxxxxx, do_im=xxxxxxxxxxxxxx
clock_counter=        194, di_re=00110110101110, do_re=xxxxxxxxxxxxxx, do_im=xxxxxxxxxxxxxx
clock_counter=        195, di_re=00110110000000, do_re=xxxxxxxxxxxxxx, do_im=xxxxxxxxxxxxxx
clock_counter=        196, di_re=00110101010011, do_re=xxxxxxxxxxxxxx, do_im=xxxxxxxxxxxxxx
clock_counter=        197, di_re=00110100100101, do_re=xxxxxxxxxxxxxx, do_im=xxxxxxxxxxxxxx
clock_counter=        198, di_re=00110011110111, do_re=xxxxxxxxxxxxxx, do_im=xxxxxxxxxxxxxx
clock_counter=        199, di_re=00110011001001, do_re=xxxxxxxxxxxxxx, do_im=xxxxxxxxxxxxxx
clock_counter=        200, di_re=00110010011011, do_re=xxxxxxxxxxxxxx, do_im=xxxxxxxxxxxxxx
clock_counter=        201, di_re=00110001101101, do_re=xxxxxxxxxxxxxx, do_im=xxxxxxxxxxxxxx
clock_counter=        202, di_re=00110000111110, do_re=xxxxxxxxxxxxxx, do_im=xxxxxxxxxxxxxx
clock_counter=        203, di_re=00110000010000, do_re=xxxxxxxxxxxxxx, do_im=xxxxxxxxxxxxxx
clock_counter=        204, di_re=00101111100001, do_re=xxxxxxxxxxxxxx, do_im=xxxxxxxxxxxxxx
clock_counter=        205, di_re=00101110110010, do_re=xxxxxxxxxxxxxx, do_im=xxxxxxxxxxxxxx
clock_counter=        206, di_re=00101110000011, do_re=xxxxxxxxxxxxxx, do_im=xxxxxxxxxxxxxx
clock_counter=        207, di_re=00101101010101, do_re=xxxxxxxxxxxxxx, do_im=xxxxxxxxxxxxxx
clock_counter=        208, di_re=00101100100101, do_re=xxxxxxxxxxxxxx, do_im=xxxxxxxxxxxxxx
clock_counter=        209, di_re=00101011110110, do_re=xxxxxxxxxxxxxx, do_im=xxxxxxxxxxxxxx
clock_counter=        210, di_re=00101011000111, do_re=xxxxxxxxxxxxxx, do_im=xxxxxxxxxxxxxx
clock_counter=        211, di_re=00101010011000, do_re=xxxxxxxxxxxxxx, do_im=xxxxxxxxxxxxxx
clock_counter=        212, di_re=00101001101000, do_re=xxxxxxxxxxxxxx, do_im=xxxxxxxxxxxxxx
clock_counter=        213, di_re=00101000111001, do_re=xxxxxxxxxxxxxx, do_im=xxxxxxxxxxxxxx
clock_counter=        214, di_re=00101000001001, do_re=xxxxxxxxxxxxxx, do_im=xxxxxxxxxxxxxx
clock_counter=        215, di_re=00100111011001, do_re=xxxxxxxxxxxxxx, do_im=xxxxxxxxxxxxxx
clock_counter=        216, di_re=00100110101001, do_re=xxxxxxxxxxxxxx, do_im=xxxxxxxxxxxxxx
clock_counter=        217, di_re=00100101111001, do_re=xxxxxxxxxxxxxx, do_im=xxxxxxxxxxxxxx
clock_counter=        218, di_re=00100101001001, do_re=xxxxxxxxxxxxxx, do_im=xxxxxxxxxxxxxx
clock_counter=        219, di_re=00100100011001, do_re=xxxxxxxxxxxxxx, do_im=xxxxxxxxxxxxxx
clock_counter=        220, di_re=00100011101001, do_re=xxxxxxxxxxxxxx, do_im=xxxxxxxxxxxxxx
clock_counter=        221, di_re=00100010111001, do_re=xxxxxxxxxxxxxx, do_im=xxxxxxxxxxxxxx
clock_counter=        222, di_re=00100010001000, do_re=xxxxxxxxxxxxxx, do_im=xxxxxxxxxxxxxx
clock_counter=        223, di_re=00100001011000, do_re=xxxxxxxxxxxxxx, do_im=xxxxxxxxxxxxxx
clock_counter=        224, di_re=00100000100111, do_re=xxxxxxxxxxxxxx, do_im=xxxxxxxxxxxxxx
clock_counter=        225, di_re=00011111110111, do_re=xxxxxxxxxxxxxx, do_im=xxxxxxxxxxxxxx
clock_counter=        226, di_re=00011111000110, do_re=xxxxxxxxxxxxxx, do_im=xxxxxxxxxxxxxx
clock_counter=        227, di_re=00011110010101, do_re=xxxxxxxxxxxxxx, do_im=xxxxxxxxxxxxxx
clock_counter=        228, di_re=00011101100100, do_re=xxxxxxxxxxxxxx, do_im=xxxxxxxxxxxxxx
clock_counter=        229, di_re=00011100110011, do_re=xxxxxxxxxxxxxx, do_im=xxxxxxxxxxxxxx
clock_counter=        230, di_re=00011100000010, do_re=xxxxxxxxxxxxxx, do_im=xxxxxxxxxxxxxx
clock_counter=        231, di_re=00011011010001, do_re=xxxxxxxxxxxxxx, do_im=xxxxxxxxxxxxxx
clock_counter=        232, di_re=00011010100000, do_re=xxxxxxxxxxxxxx, do_im=xxxxxxxxxxxxxx
clock_counter=        233, di_re=00011001101111, do_re=xxxxxxxxxxxxxx, do_im=xxxxxxxxxxxxxx
clock_counter=        234, di_re=00011000111110, do_re=xxxxxxxxxxxxxx, do_im=xxxxxxxxxxxxxx
clock_counter=        235, di_re=00011000001100, do_re=xxxxxxxxxxxxxx, do_im=xxxxxxxxxxxxxx
clock_counter=        236, di_re=00010111011011, do_re=xxxxxxxxxxxxxx, do_im=xxxxxxxxxxxxxx
clock_counter=        237, di_re=00010110101001, do_re=xxxxxxxxxxxxxx, do_im=xxxxxxxxxxxxxx
clock_counter=        238, di_re=00010101111000, do_re=xxxxxxxxxxxxxx, do_im=xxxxxxxxxxxxxx
clock_counter=        239, di_re=00010101000110, do_re=xxxxxxxxxxxxxx, do_im=xxxxxxxxxxxxxx
clock_counter=        240, di_re=00010100010101, do_re=xxxxxxxxxxxxxx, do_im=xxxxxxxxxxxxxx
clock_counter=        241, di_re=00010011100011, do_re=xxxxxxxxxxxxxx, do_im=xxxxxxxxxxxxxx
clock_counter=        242, di_re=00010010110001, do_re=xxxxxxxxxxxxxx, do_im=xxxxxxxxxxxxxx
clock_counter=        243, di_re=00010010000000, do_re=xxxxxxxxxxxxxx, do_im=xxxxxxxxxxxxxx
clock_counter=        244, di_re=00010001001110, do_re=xxxxxxxxxxxxxx, do_im=xxxxxxxxxxxxxx
clock_counter=        245, di_re=00010000011100, do_re=xxxxxxxxxxxxxx, do_im=xxxxxxxxxxxxxx
clock_counter=        246, di_re=00001111101010, do_re=xxxxxxxxxxxxxx, do_im=xxxxxxxxxxxxxx
clock_counter=        247, di_re=00001110111000, do_re=xxxxxxxxxxxxxx, do_im=xxxxxxxxxxxxxx
clock_counter=        248, di_re=00001110000110, do_re=xxxxxxxxxxxxxx, do_im=xxxxxxxxxxxxxx
clock_counter=        249, di_re=00001101010100, do_re=xxxxxxxxxxxxxx, do_im=xxxxxxxxxxxxxx
clock_counter=        250, di_re=00001100100010, do_re=xxxxxxxxxxxxxx, do_im=xxxxxxxxxxxxxx
clock_counter=        251, di_re=00001011110000, do_re=xxxxxxxxxxxxxx, do_im=xxxxxxxxxxxxxx
clock_counter=        252, di_re=00001010111110, do_re=xxxxxxxxxxxxxx, do_im=xxxxxxxxxxxxxx
clock_counter=        253, di_re=00001010001100, do_re=xxxxxxxxxxxxxx, do_im=xxxxxxxxxxxxxx
clock_counter=        254, di_re=00001001011010, do_re=xxxxxxxxxxxxxx, do_im=xxxxxxxxxxxxxx
clock_counter=        255, di_re=00001000101000, do_re=xxxxxxxxxxxxxx, do_im=xxxxxxxxxxxxxx
clock_counter=        256, di_re=00000111110110, do_re=xxxxxxxxxxxxxx, do_im=xxxxxxxxxxxxxx
clock_counter=        257, di_re=00000111000100, do_re=xxxxxxxxxxxxxx, do_im=xxxxxxxxxxxxxx
clock_counter=        258, di_re=00000110010001, do_re=xxxxxxxxxxxxxx, do_im=xxxxxxxxxxxxxx
