r22sdf.sim/sim_1/behav/xsim/simulate.log
Time resolution is 1 ps
db1_di_re= 8191, db1_di_im=    0, db1_do_re=    x, db1_do_im=    x
db1_di_re= 8191, db1_di_im=    0, db1_do_re=    x, db1_do_im=    x
db1_di_re= 8191, db1_di_im=    0, db1_do_re=    x, db1_do_im=    x
db1_di_re= 8190, db1_di_im=    0, db1_do_re=    x, db1_do_im=    x
db1_di_re= 8189, db1_di_im=    0, db1_do_re=    x, db1_do_im=    x
db1_di_re= 8187, db1_di_im=    0, db1_do_re=    x, db1_do_im=    x
db1_di_re= 8186, db1_di_im=    0, db1_do_re=    x, db1_do_im=    x
db1_di_re= 8184, db1_di_im=    0, db1_do_re=    x, db1_do_im=    x
db1_di_re= 8181, db1_di_im=    0, db1_do_re=    x, db1_do_im=    x
db1_di_re= 8179, db1_di_im=    0, db1_do_re=    x, db1_do_im=    x
db1_di_re= 8176, db1_di_im=    0, db1_do_re=    x, db1_do_im=    x
db1_di_re= 8173, db1_di_im=    0, db1_do_re=    x, db1_do_im=    x
db1_di_re= 8169, db1_di_im=    0, db1_do_re=    x, db1_do_im=    x
db1_di_re= 8165, db1_di_im=    0, db1_do_re=    x, db1_do_im=    x
db1_di_re= 8161, db1_di_im=    0, db1_do_re=    x, db1_do_im=    x
db1_di_re= 8157, db1_di_im=    0, db1_do_re=    x, db1_do_im=    x
db1_di_re= 8152, db1_di_im=    0, db1_do_re=    x, db1_do_im=    x
db1_di_re= 8147, db1_di_im=    0, db1_do_re=    x, db1_do_im=    x
db1_di_re= 8141, db1_di_im=    0, db1_do_re=    x, db1_do_im=    x
db1_di_re= 8136, db1_di_im=    0, db1_do_re=    x, db1_do_im=    x
db1_di_re= 8130, db1_di_im=    0, db1_do_re=    x, db1_do_im=    x
db1_di_re= 8123, db1_di_im=    0, db1_do_re=    x, db1_do_im=    x
db1_di_re= 8117, db1_di_im=    0, db1_do_re=    x, db1_do_im=    x
db1_di_re= 8110, db1_di_im=    0, db1_do_re=    x, db1_do_im=    x
db1_di_re= 8103, db1_di_im=    0, db1_do_re=    x, db1_do_im=    x
db1_di_re= 8095, db1_di_im=    0, db1_do_re=    x, db1_do_im=    x
db1_di_re= 8087, db1_di_im=    0, db1_do_re=    x, db1_do_im=    x
db1_di_re= 8079, db1_di_im=    0, db1_do_re=    x, db1_do_im=    x
db1_di_re= 8071, db1_di_im=    0, db1_do_re=    x, db1_do_im=    x
db1_di_re= 8062, db1_di_im=    0, db1_do_re=    x, db1_do_im=    x
db1_di_re= 8053, db1_di_im=    0, db1_do_re=    x, db1_do_im=    x
db1_di_re= 8043, db1_di_im=    0, db1_do_re=    x, db1_do_im=    x
db1_di_re= 8034, db1_di_im=    0, db1_do_re=    x, db1_do_im=    x
db1_di_re= 8024, db1_di_im=    0, db1_do_re=    x, db1_do_im=    x
db1_di_re= 8014, db1_di_im=    0, db1_do_re=    x, db1_do_im=    x
db1_di_re= 8003, db1_di_im=    0, db1_do_re=    x, db1_do_im=    x
db1_di_re= 7992, db1_di_im=    0, db1_do_re=    x, db1_do_im=    x
db1_di_re= 7981, db1_di_im=    0, db1_do_re=    x, db1_do_im=    x
db1_di_re= 7970, db1_di_im=    0, db1_do_re=    x, db1_do_im=    x
db1_di_re= 7958, db1_di_im=    0, db1_do_re=    x, db1_do_im=    x
db1_di_re= 7946, db1_di_im=    0, db1_do_re=    x, db1_do_im=    x
db1_di_re= 7933, db1_di_im=    0, db1_do_re=    x, db1_do_im=    x
db1_di_re= 7921, db1_di_im=    0, db1_do_re=    x, db1_do_im=    x
db1_di_re= 7908, db1_di_im=    0, db1_do_re=    x, db1_do_im=    x
db1_di_re= 7894, db1_di_im=    0, db1_do_re=    x, db1_do_im=    x
db1_di_re= 7881, db1_di_im=    0, db1_do_re=    x, db1_do_im=    x
db1_di_re= 7867, db1_di_im=    0, db1_do_re=    x, db1_do_im=    x
db1_di_re= 7853, db1_di_im=    0, db1_do_re=    x, db1_do_im=    x
db1_di_re= 7838, db1_di_im=    0, db1_do_re=    x, db1_do_im=    x
db1_di_re= 7824, db1_di_im=    0, db1_do_re=    x, db1_do_im=    x
db1_di_re= 7809, db1_di_im=    0, db1_do_re=    x, db1_do_im=    x
db1_di_re= 7793, db1_di_im=    0, db1_do_re=    x, db1_do_im=    x
db1_di_re= 7778, db1_di_im=    0, db1_do_re=    x, db1_do_im=    x
db1_di_re= 7762, db1_di_im=    0, db1_do_re=    x, db1_do_im=    x
db1_di_re= 7746, db1_di_im=    0, db1_do_re=    x, db1_do_im=    x
db1_di_re= 7729, db1_di_im=    0, db1_do_re=    x, db1_do_im=    x
db1_di_re= 7712, db1_di_im=    0, db1_do_re=    x, db1_do_im=    x
db1_di_re= 7695, db1_di_im=    0, db1_do_re=    x, db1_do_im=    x
db1_di_re= 7678, db1_di_im=    0, db1_do_re=    x, db1_do_im=    x
db1_di_re= 7660, db1_di_im=    0, db1_do_re=    x, db1_do_im=    x
db1_di_re= 7642, db1_di_im=    0, db1_do_re=    x, db1_do_im=    x
db1_di_re= 7624, db1_di_im=    0, db1_do_re=    x, db1_do_im=    x
db1_di_re= 7606, db1_di_im=    0, db1_do_re=    x, db1_do_im=    x
db1_di_re= 7587, db1_di_im=    0, db1_do_re=    x, db1_do_im=    x
db1_di_re= 7568, db1_di_im=    0, db1_do_re=    x, db1_do_im=    x
db1_di_re= 7548, db1_di_im=    0, db1_do_re=    x, db1_do_im=    x
db1_di_re= 7529, db1_di_im=    0, db1_do_re=    x, db1_do_im=    x
db1_di_re= 7509, db1_di_im=    0, db1_do_re=    x, db1_do_im=    x
db1_di_re= 7488, db1_di_im=    0, db1_do_re=    x, db1_do_im=    x
db1_di_re= 7468, db1_di_im=    0, db1_do_re=    x, db1_do_im=    x
db1_di_re= 7447, db1_di_im=    0, db1_do_re=    x, db1_do_im=    x
db1_di_re= 7426, db1_di_im=    0, db1_do_re=    x, db1_do_im=    x
db1_di_re= 7405, db1_di_im=    0, db1_do_re=    x, db1_do_im=    x
db1_di_re= 7383, db1_di_im=    0, db1_do_re=    x, db1_do_im=    x
db1_di_re= 7361, db1_di_im=    0, db1_do_re=    x, db1_do_im=    x
db1_di_re= 7339, db1_di_im=    0, db1_do_re=    x, db1_do_im=    x
db1_di_re= 7317, db1_di_im=    0, db1_do_re=    x, db1_do_im=    x
db1_di_re= 7294, db1_di_im=    0, db1_do_re=    x, db1_do_im=    x
db1_di_re= 7271, db1_di_im=    0, db1_do_re=    x, db1_do_im=    x
db1_di_re= 7248, db1_di_im=    0, db1_do_re=    x, db1_do_im=    x
db1_di_re= 7224, db1_di_im=    0, db1_do_re=    x, db1_do_im=    x
db1_di_re= 7200, db1_di_im=    0, db1_do_re=    x, db1_do_im=    x
db1_di_re= 7176, db1_di_im=    0, db1_do_re=    x, db1_do_im=    x
db1_di_re= 7152, db1_di_im=    0, db1_do_re=    x, db1_do_im=    x
db1_di_re= 7127, db1_di_im=    0, db1_do_re=    x, db1_do_im=    x
db1_di_re= 7102, db1_di_im=    0, db1_do_re=    x, db1_do_im=    x
db1_di_re= 7077, db1_di_im=    0, db1_do_re=    x, db1_do_im=    x
db1_di_re= 7052, db1_di_im=    0, db1_do_re=    x, db1_do_im=    x
db1_di_re= 7026, db1_di_im=    0, db1_do_re=    x, db1_do_im=    x
db1_di_re= 7000, db1_di_im=    0, db1_do_re=    x, db1_do_im=    x
db1_di_re= 6974, db1_di_im=    0, db1_do_re=    x, db1_do_im=    x
db1_di_re= 6947, db1_di_im=    0, db1_do_re=    x, db1_do_im=    x
db1_di_re= 6920, db1_di_im=    0, db1_do_re=    x, db1_do_im=    x
db1_di_re= 6893, db1_di_im=    0, db1_do_re=    x, db1_do_im=    x
db1_di_re= 6866, db1_di_im=    0, db1_do_re=    x, db1_do_im=    x
db1_di_re= 6839, db1_di_im=    0, db1_do_re=    x, db1_do_im=    x
db1_di_re= 6811, db1_di_im=    0, db1_do_re=    x, db1_do_im=    x
db1_di_re= 6783, db1_di_im=    0, db1_do_re=    x, db1_do_im=    x
db1_di_re= 6754, db1_di_im=    0, db1_do_re=    x, db1_do_im=    x
db1_di_re= 6726, db1_di_im=    0, db1_do_re=    x, db1_do_im=    x
db1_di_re= 6697, db1_di_im=    0, db1_do_re=    x, db1_do_im=    x
db1_di_re= 6668, db1_di_im=    0, db1_do_re=    x, db1_do_im=    x
db1_di_re= 6639, db1_di_im=    0, db1_do_re=    x, db1_do_im=    x
db1_di_re= 6609, db1_di_im=    0, db1_do_re=    x, db1_do_im=    x
db1_di_re= 6579, db1_di_im=    0, db1_do_re=    x, db1_do_im=    x
db1_di_re= 6549, db1_di_im=    0, db1_do_re=    x, db1_do_im=    x
db1_di_re= 6519, db1_di_im=    0, db1_do_re=    x, db1_do_im=    x
db1_di_re= 6488, db1_di_im=    0, db1_do_re=    x, db1_do_im=    x
db1_di_re= 6457, db1_di_im=    0, db1_do_re=    x, db1_do_im=    x
db1_di_re= 6426, db1_di_im=    0, db1_do_re=    x, db1_do_im=    x
db1_di_re= 6395, db1_di_im=    0, db1_do_re=    x, db1_do_im=    x
db1_di_re= 6364, db1_di_im=    0, db1_do_re=    x, db1_do_im=    x
db1_di_re= 6332, db1_di_im=    0, db1_do_re=    x, db1_do_im=    x
db1_di_re= 6300, db1_di_im=    0, db1_do_re=    x, db1_do_im=    x
db1_di_re= 6268, db1_di_im=    0, db1_do_re=    x, db1_do_im=    x
db1_di_re= 6235, db1_di_im=    0, db1_do_re=    x, db1_do_im=    x
db1_di_re= 6202, db1_di_im=    0, db1_do_re=    x, db1_do_im=    x
db1_di_re= 6169, db1_di_im=    0, db1_do_re=    x, db1_do_im=    x
db1_di_re= 6136, db1_di_im=    0, db1_do_re=    x, db1_do_im=    x
db1_di_re= 6103, db1_di_im=    0, db1_do_re=    x, db1_do_im=    x
db1_di_re= 6069, db1_di_im=    0, db1_do_re=    x, db1_do_im=    x
db1_di_re= 6035, db1_di_im=    0, db1_do_re=    x, db1_do_im=    x
db1_di_re= 6001, db1_di_im=    0, db1_do_re=    x, db1_do_im=    x
db1_di_re= 5967, db1_di_im=    0, db1_do_re=    x, db1_do_im=    x
db1_di_re= 5932, db1_di_im=    0, db1_do_re=    x, db1_do_im=    x
db1_di_re= 5898, db1_di_im=    0, db1_do_re=    x, db1_do_im=    x
db1_di_re= 5863, db1_di_im=    0, db1_do_re=    x, db1_do_im=    x
db1_di_re= 5827, db1_di_im=    0, db1_do_re=    x, db1_do_im=    x
db1_di_re= 5792, db1_di_im=    0, db1_do_re=    x, db1_do_im=    x
db1_di_re= 5756, db1_di_im=    0, db1_do_re=    x, db1_do_im=    x
db1_di_re= 5721, db1_di_im=    0, db1_do_re=    x, db1_do_im=    x
db1_di_re= 5684, db1_di_im=    0, db1_do_re=    x, db1_do_im=    x
db1_di_re= 5648, db1_di_im=    0, db1_do_re=    x, db1_do_im=    x
db1_di_re= 5612, db1_di_im=    0, db1_do_re=    x, db1_do_im=    x
db1_di_re= 5575, db1_di_im=    0, db1_do_re=    x, db1_do_im=    x
db1_di_re= 5538, db1_di_im=    0, db1_do_re=    x, db1_do_im=    x
db1_di_re= 5501, db1_di_im=    0, db1_do_re=    x, db1_do_im=    x
db1_di_re= 5464, db1_di_im=    0, db1_do_re=    x, db1_do_im=    x
db1_di_re= 5426, db1_di_im=    0, db1_do_re=    x, db1_do_im=    x
db1_di_re= 5388, db1_di_im=    0, db1_do_re=    x, db1_do_im=    x
db1_di_re= 5350, db1_di_im=    0, db1_do_re=    x, db1_do_im=    x
db1_di_re= 5312, db1_di_im=    0, db1_do_re=    x, db1_do_im=    x
db1_di_re= 5274, db1_di_im=    0, db1_do_re=    x, db1_do_im=    x
db1_di_re= 5235, db1_di_im=    0, db1_do_re=    x, db1_do_im=    x
db1_di_re= 5196, db1_di_im=    0, db1_do_re=    x, db1_do_im=    x
db1_di_re= 5157, db1_di_im=    0, db1_do_re=    x, db1_do_im=    x
db1_di_re= 5118, db1_di_im=    0, db1_do_re=    x, db1_do_im=    x
db1_di_re= 5079, db1_di_im=    0, db1_do_re=    x, db1_do_im=    x
db1_di_re= 5039, db1_di_im=    0, db1_do_re=    x, db1_do_im=    x
db1_di_re= 5000, db1_di_im=    0, db1_do_re=    x, db1_do_im=    x
db1_di_re= 4960, db1_di_im=    0, db1_do_re=    x, db1_do_im=    x
db1_di_re= 4920, db1_di_im=    0, db1_do_re=    x, db1_do_im=    x
db1_di_re= 4879, db1_di_im=    0, db1_do_re=    x, db1_do_im=    x
db1_di_re= 4839, db1_di_im=    0, db1_do_re=    x, db1_do_im=    x
db1_di_re= 4798, db1_di_im=    0, db1_do_re=    x, db1_do_im=    x
db1_di_re= 4758, db1_di_im=    0, db1_do_re=    x, db1_do_im=    x
db1_di_re= 4717, db1_di_im=    0, db1_do_re=    x, db1_do_im=    x
db1_di_re= 4675, db1_di_im=    0, db1_do_re=    x, db1_do_im=    x
db1_di_re= 4634, db1_di_im=    0, db1_do_re=    x, db1_do_im=    x
db1_di_re= 4592, db1_di_im=    0, db1_do_re=    x, db1_do_im=    x
db1_di_re= 4551, db1_di_im=    0, db1_do_re=    x, db1_do_im=    x
db1_di_re= 4509, db1_di_im=    0, db1_do_re=    x, db1_do_im=    x
db1_di_re= 4467, db1_di_im=    0, db1_do_re=    x, db1_do_im=    x
db1_di_re= 4425, db1_di_im=    0, db1_do_re=    x, db1_do_im=    x
db1_di_re= 4382, db1_di_im=    0, db1_do_re=    x, db1_do_im=    x
db1_di_re= 4340, db1_di_im=    0, db1_do_re=    x, db1_do_im=    x
db1_di_re= 4297, db1_di_im=    0, db1_do_re=    x, db1_do_im=    x
db1_di_re= 4254, db1_di_im=    0, db1_do_re=    x, db1_do_im=    x
db1_di_re= 4211, db1_di_im=    0, db1_do_re=    x, db1_do_im=    x
db1_di_re= 4168, db1_di_im=    0, db1_do_re=    x, db1_do_im=    x
db1_di_re= 4125, db1_di_im=    0, db1_do_re=    x, db1_do_im=    x
db1_di_re= 4081, db1_di_im=    0, db1_do_re=    x, db1_do_im=    x
db1_di_re= 4037, db1_di_im=    0, db1_do_re=    x, db1_do_im=    x
db1_di_re= 3994, db1_di_im=    0, db1_do_re=    x, db1_do_im=    x
db1_di_re= 3950, db1_di_im=    0, db1_do_re=    x, db1_do_im=    x
db1_di_re= 3906, db1_di_im=    0, db1_do_re=    x, db1_do_im=    x
db1_di_re= 3861, db1_di_im=    0, db1_do_re=    x, db1_do_im=    x
db1_di_re= 3817, db1_di_im=    0, db1_do_re=    x, db1_do_im=    x
db1_di_re= 3772, db1_di_im=    0, db1_do_re=    x, db1_do_im=    x
db1_di_re= 3728, db1_di_im=    0, db1_do_re=    x, db1_do_im=    x
db1_di_re= 3683, db1_di_im=    0, db1_do_re=    x, db1_do_im=    x
db1_di_re= 3638, db1_di_im=    0, db1_do_re=    x, db1_do_im=    x
db1_di_re= 3593, db1_di_im=    0, db1_do_re=    x, db1_do_im=    x
db1_di_re= 3548, db1_di_im=    0, db1_do_re=    x, db1_do_im=    x
db1_di_re= 3502, db1_di_im=    0, db1_do_re=    x, db1_do_im=    x
db1_di_re= 3457, db1_di_im=    0, db1_do_re=    x, db1_do_im=    x
db1_di_re= 3411, db1_di_im=    0, db1_do_re=    x, db1_do_im=    x
db1_di_re= 3365, db1_di_im=    0, db1_do_re=    x, db1_do_im=    x
db1_di_re= 3319, db1_di_im=    0, db1_do_re=    x, db1_do_im=    x
db1_di_re= 3273, db1_di_im=    0, db1_do_re=    x, db1_do_im=    x
db1_di_re= 3227, db1_di_im=    0, db1_do_re=    x, db1_do_im=    x
db1_di_re= 3181, db1_di_im=    0, db1_do_re=    x, db1_do_im=    x
db1_di_re= 3135, db1_di_im=    0, db1_do_re=    x, db1_do_im=    x
db1_di_re= 3088, db1_di_im=    0, db1_do_re=    x, db1_do_im=    x
db1_di_re= 3042, db1_di_im=    0, db1_do_re=    x, db1_do_im=    x
db1_di_re= 2995, db1_di_im=    0, db1_do_re=    x, db1_do_im=    x
db1_di_re= 2948, db1_di_im=    0, db1_do_re=    x, db1_do_im=    x
db1_di_re= 2901, db1_di_im=    0, db1_do_re=    x, db1_do_im=    x
db1_di_re= 2854, db1_di_im=    0, db1_do_re=    x, db1_do_im=    x
db1_di_re= 2807, db1_di_im=    0, db1_do_re=    x, db1_do_im=    x
db1_di_re= 2760, db1_di_im=    0, db1_do_re=    x, db1_do_im=    x
db1_di_re= 2712, db1_di_im=    0, db1_do_re=    x, db1_do_im=    x
db1_di_re= 2665, db1_di_im=    0, db1_do_re=    x, db1_do_im=    x
db1_di_re= 2617, db1_di_im=    0, db1_do_re=    x, db1_do_im=    x
db1_di_re= 2569, db1_di_im=    0, db1_do_re=    x, db1_do_im=    x
db1_di_re= 2522, db1_di_im=    0, db1_do_re=    x, db1_do_im=    x
db1_di_re= 2474, db1_di_im=    0, db1_do_re=    x, db1_do_im=    x
db1_di_re= 2426, db1_di_im=    0, db1_do_re=    x, db1_do_im=    x
db1_di_re= 2378, db1_di_im=    0, db1_do_re=    x, db1_do_im=    x
db1_di_re= 2330, db1_di_im=    0, db1_do_re=    x, db1_do_im=    x
db1_di_re= 2281, db1_di_im=    0, db1_do_re=    x, db1_do_im=    x
db1_di_re= 2233, db1_di_im=    0, db1_do_re=    x, db1_do_im=    x
db1_di_re= 2185, db1_di_im=    0, db1_do_re=    x, db1_do_im=    x
db1_di_re= 2136, db1_di_im=    0, db1_do_re=    x, db1_do_im=    x
db1_di_re= 2088, db1_di_im=    0, db1_do_re=    x, db1_do_im=    x
db1_di_re= 2039, db1_di_im=    0, db1_do_re=    x, db1_do_im=    x
db1_di_re= 1990, db1_di_im=    0, db1_do_re=    x, db1_do_im=    x
db1_di_re= 1942, db1_di_im=    0, db1_do_re=    x, db1_do_im=    x
db1_di_re= 1893, db1_di_im=    0, db1_do_re=    x, db1_do_im=    x
db1_di_re= 1844, db1_di_im=    0, db1_do_re=    x, db1_do_im=    x
db1_di_re= 1795, db1_di_im=    0, db1_do_re=    x, db1_do_im=    x
db1_di_re= 1746, db1_di_im=    0, db1_do_re=    x, db1_do_im=    x
db1_di_re= 1696, db1_di_im=    0, db1_do_re=    x, db1_do_im=    x
db1_di_re= 1647, db1_di_im=    0, db1_do_re=    x, db1_do_im=    x
db1_di_re= 1598, db1_di_im=    0, db1_do_re=    x, db1_do_im=    x
db1_di_re= 1549, db1_di_im=    0, db1_do_re=    x, db1_do_im=    x
db1_di_re= 1499, db1_di_im=    0, db1_do_re=    x, db1_do_im=    x
db1_di_re= 1450, db1_di_im=    0, db1_do_re=    x, db1_do_im=    x
db1_di_re= 1400, db1_di_im=    0, db1_do_re=    x, db1_do_im=    x
db1_di_re= 1351, db1_di_im=    0, db1_do_re=    x, db1_do_im=    x
db1_di_re= 1301, db1_di_im=    0, db1_do_re=    x, db1_do_im=    x
db1_di_re= 1252, db1_di_im=    0, db1_do_re=    x, db1_do_im=    x
db1_di_re= 1202, db1_di_im=    0, db1_do_re=    x, db1_do_im=    x
db1_di_re= 1152, db1_di_im=    0, db1_do_re=    x, db1_do_im=    x
db1_di_re= 1102, db1_di_im=    0, db1_do_re=    x, db1_do_im=    x
db1_di_re= 1053, db1_di_im=    0, db1_do_re=    x, db1_do_im=    x
db1_di_re= 1003, db1_di_im=    0, db1_do_re=    x, db1_do_im=    x
db1_di_re=  953, db1_di_im=    0, db1_do_re=    x, db1_do_im=    x
db1_di_re=  903, db1_di_im=    0, db1_do_re=    x, db1_do_im=    x
db1_di_re=  853, db1_di_im=    0, db1_do_re=    x, db1_do_im=    x
db1_di_re=  803, db1_di_im=    0, db1_do_re=    x, db1_do_im=    x
db1_di_re=  753, db1_di_im=    0, db1_do_re=    x, db1_do_im=    x
db1_di_re=  703, db1_di_im=    0, db1_do_re=    x, db1_do_im=    x
db1_di_re=  653, db1_di_im=    0, db1_do_re=    x, db1_do_im=    x
db1_di_re=  603, db1_di_im=    0, db1_do_re=    x, db1_do_im=    x
db1_di_re=  552, db1_di_im=    0, db1_do_re=    x, db1_do_im=    x
db1_di_re=  502, db1_di_im=    0, db1_do_re=    x, db1_do_im=    x
db1_di_re=  452, db1_di_im=    0, db1_do_re=    x, db1_do_im=    x
db1_di_re=  402, db1_di_im=    0, db1_do_re=    x, db1_do_im=    x
db1_di_re=  352, db1_di_im=    0, db1_do_re=    x, db1_do_im=    x
db1_di_re=  301, db1_di_im=    0, db1_do_re=    x, db1_do_im=    x
db1_di_re=  251, db1_di_im=    0, db1_do_re=    x, db1_do_im=    x
db1_di_re=  201, db1_di_im=    0, db1_do_re=    x, db1_do_im=    x
db1_di_re=  151, db1_di_im=    0, db1_do_re=    x, db1_do_im=    x
db1_di_re=  101, db1_di_im=    0, db1_do_re=    x, db1_do_im=    x
db1_di_re=   50, db1_di_im=    0, db1_do_re=    x, db1_do_im=    x
db1_di_re=    0, db1_di_im=    0, db1_do_re=    x, db1_do_im=    x
db1_di_re=16334, db1_di_im=    0, db1_do_re=    x, db1_do_im=    x
db1_di_re=16283, db1_di_im=    0, db1_do_re=    x, db1_do_im=    x
db1_di_re=16233, db1_di_im=    0, db1_do_re=    x, db1_do_im=    x
db1_di_re=16183, db1_di_im=    0, db1_do_re=    x, db1_do_im=    x
db1_di_re=16133, db1_di_im=    0, db1_do_re=    x, db1_do_im=    x
db1_di_re=16083, db1_di_im=    0, db1_do_re=    x, db1_do_im=    x
db1_di_re=16032, db1_di_im=    0, db1_do_re=    x, db1_do_im=    x
db1_di_re=15982, db1_di_im=    0, db1_do_re=    x, db1_do_im=    x
db1_di_re=15932, db1_di_im=    0, db1_do_re=    x, db1_do_im=    x
db1_di_re=15882, db1_di_im=    0, db1_do_re=    x, db1_do_im=    x
db1_di_re=15832, db1_di_im=    0, db1_do_re=    x, db1_do_im=    x
db1_di_re=15781, db1_di_im=    0, db1_do_re=    x, db1_do_im=    x
db1_di_re=15731, db1_di_im=    0, db1_do_re=    x, db1_do_im=    x
db1_di_re=15681, db1_di_im=    0, db1_do_re=    x, db1_do_im=    x
db1_di_re=15631, db1_di_im=    0, db1_do_re=    x, db1_do_im=    x
db1_di_re=15581, db1_di_im=    0, db1_do_re=    x, db1_do_im=    x
db1_di_re=15531, db1_di_im=    0, db1_do_re=    x, db1_do_im=    x
db1_di_re=15481, db1_di_im=    0, db1_do_re=    x, db1_do_im=    x
db1_di_re=15431, db1_di_im=    0, db1_do_re=    x, db1_do_im=    x
db1_di_re=15381, db1_di_im=    0, db1_do_re=    x, db1_do_im=    x
db1_di_re=15331, db1_di_im=    0, db1_do_re=    x, db1_do_im=    x
db1_di_re=15282, db1_di_im=    0, db1_do_re=    x, db1_do_im=    x
db1_di_re=15232, db1_di_im=    0, db1_do_re=    x, db1_do_im=    x
db1_di_re=15182, db1_di_im=    0, db1_do_re=    x, db1_do_im=    x
db1_di_re=15132, db1_di_im=    0, db1_do_re=    x, db1_do_im=    x
db1_di_re=15083, db1_di_im=    0, db1_do_re=    x, db1_do_im=    x
db1_di_re=15033, db1_di_im=    0, db1_do_re=    x, db1_do_im=    x
db1_di_re=14984, db1_di_im=    0, db1_do_re=    x, db1_do_im=    x
db1_di_re=14934, db1_di_im=    0, db1_do_re=    x, db1_do_im=    x
db1_di_re=14885, db1_di_im=    0, db1_do_re=    x, db1_do_im=    x
db1_di_re=14835, db1_di_im=    0, db1_do_re=    x, db1_do_im=    x
db1_di_re=14786, db1_di_im=    0, db1_do_re=    x, db1_do_im=    x
db1_di_re=14737, db1_di_im=    0, db1_do_re=    x, db1_do_im=    x
db1_di_re=14688, db1_di_im=    0, db1_do_re=    x, db1_do_im=    x
db1_di_re=14638, db1_di_im=    0, db1_do_re=    x, db1_do_im=    x
db1_di_re=14589, db1_di_im=    0, db1_do_re=    x, db1_do_im=    x
db1_di_re=14540, db1_di_im=    0, db1_do_re=    x, db1_do_im=    x
db1_di_re=14491, db1_di_im=    0, db1_do_re=    x, db1_do_im=    x
db1_di_re=14442, db1_di_im=    0, db1_do_re=    x, db1_do_im=    x
db1_di_re=14394, db1_di_im=    0, db1_do_re=    x, db1_do_im=    x
db1_di_re=14345, db1_di_im=    0, db1_do_re=    x, db1_do_im=    x
db1_di_re=14296, db1_di_im=    0, db1_do_re=    x, db1_do_im=    x
db1_di_re=14248, db1_di_im=    0, db1_do_re=    x, db1_do_im=    x
db1_di_re=14199, db1_di_im=    0, db1_do_re=    x, db1_do_im=    x
db1_di_re=14151, db1_di_im=    0, db1_do_re=    x, db1_do_im=    x
db1_di_re=14103, db1_di_im=    0, db1_do_re=    x, db1_do_im=    x
db1_di_re=14054, db1_di_im=    0, db1_do_re=    x, db1_do_im=    x
db1_di_re=14006, db1_di_im=    0, db1_do_re=    x, db1_do_im=    x
db1_di_re=13958, db1_di_im=    0, db1_do_re=    x, db1_do_im=    x
db1_di_re=13910, db1_di_im=    0, db1_do_re=    x, db1_do_im=    x
db1_di_re=13862, db1_di_im=    0, db1_do_re=    x, db1_do_im=    x
db1_di_re=13815, db1_di_im=    0, db1_do_re=    x, db1_do_im=    x
db1_di_re=13767, db1_di_im=    0, db1_do_re=    x, db1_do_im=    x
db1_di_re=13719, db1_di_im=    0, db1_do_re=    x, db1_do_im=    x
db1_di_re=13672, db1_di_im=    0, db1_do_re=    x, db1_do_im=    x
db1_di_re=13624, db1_di_im=    0, db1_do_re=    x, db1_do_im=    x
db1_di_re=13577, db1_di_im=    0, db1_do_re=    x, db1_do_im=    x
db1_di_re=13530, db1_di_im=    0, db1_do_re=    x, db1_do_im=    x
db1_di_re=13483, db1_di_im=    0, db1_do_re=    x, db1_do_im=    x
db1_di_re=13436, db1_di_im=    0, db1_do_re=    x, db1_do_im=    x
db1_di_re=13389, db1_di_im=    0, db1_do_re=    x, db1_do_im=    x
db1_di_re=13342, db1_di_im=    0, db1_do_re=    x, db1_do_im=    x
db1_di_re=13296, db1_di_im=    0, db1_do_re=    x, db1_do_im=    x
db1_di_re=13249, db1_di_im=    0, db1_do_re=    x, db1_do_im=    x
db1_di_re=13203, db1_di_im=    0, db1_do_re=    x, db1_do_im=    x
db1_di_re=13157, db1_di_im=    0, db1_do_re=    x, db1_do_im=    x
db1_di_re=13111, db1_di_im=    0, db1_do_re=    x, db1_do_im=    x
db1_di_re=13065, db1_di_im=    0, db1_do_re=    x, db1_do_im=    x
db1_di_re=13019, db1_di_im=    0, db1_do_re=    x, db1_do_im=    x
db1_di_re=12973, db1_di_im=    0, db1_do_re=    x, db1_do_im=    x
db1_di_re=12927, db1_di_im=    0, db1_do_re=    x, db1_do_im=    x
db1_di_re=12882, db1_di_im=    0, db1_do_re=    x, db1_do_im=    x
db1_di_re=12836, db1_di_im=    0, db1_do_re=    x, db1_do_im=    x
db1_di_re=12791, db1_di_im=    0, db1_do_re=    x, db1_do_im=    x
db1_di_re=12746, db1_di_im=    0, db1_do_re=    x, db1_do_im=    x
db1_di_re=12701, db1_di_im=    0, db1_do_re=    x, db1_do_im=    x
db1_di_re=12656, db1_di_im=    0, db1_do_re=    x, db1_do_im=    x
db1_di_re=12612, db1_di_im=    0, db1_do_re=    x, db1_do_im=    x
db1_di_re=12567, db1_di_im=    0, db1_do_re=    x, db1_do_im=    x
db1_di_re=12523, db1_di_im=    0, db1_do_re=    x, db1_do_im=    x
db1_di_re=12478, db1_di_im=    0, db1_do_re=    x, db1_do_im=    x
db1_di_re=12434, db1_di_im=    0, db1_do_re=    x, db1_do_im=    x
db1_di_re=12390, db1_di_im=    0, db1_do_re=    x, db1_do_im=    x
db1_di_re=12347, db1_di_im=    0, db1_do_re=    x, db1_do_im=    x
db1_di_re=12303, db1_di_im=    0, db1_do_re=    x, db1_do_im=    x
db1_di_re=12259, db1_di_im=    0, db1_do_re=    x, db1_do_im=    x
db1_di_re=12216, db1_di_im=    0, db1_do_re=    x, db1_do_im=    x
db1_di_re=12173, db1_di_im=    0, db1_do_re=    x, db1_do_im=    x
db1_di_re=12130, db1_di_im=    0, db1_do_re=    x, db1_do_im=    x
db1_di_re=12087, db1_di_im=    0, db1_do_re=    x, db1_do_im=    x
db1_di_re=12044, db1_di_im=    0, db1_do_re=    x, db1_do_im=    x
db1_di_re=12002, db1_di_im=    0, db1_do_re=    x, db1_do_im=    x
db1_di_re=11959, db1_di_im=    0, db1_do_re=    x, db1_do_im=    x
db1_di_re=11917, db1_di_im=    0, db1_do_re=    x, db1_do_im=    x
db1_di_re=11875, db1_di_im=    0, db1_do_re=    x, db1_do_im=    x
db1_di_re=11833, db1_di_im=    0, db1_do_re=    x, db1_do_im=    x
db1_di_re=11792, db1_di_im=    0, db1_do_re=    x, db1_do_im=    x
db1_di_re=11750, db1_di_im=    0, db1_do_re=    x, db1_do_im=    x
db1_di_re=11709, db1_di_im=    0, db1_do_re=    x, db1_do_im=    x
db1_di_re=11667, db1_di_im=    0, db1_do_re=    x, db1_do_im=    x
db1_di_re=11626, db1_di_im=    0, db1_do_re=    x, db1_do_im=    x
db1_di_re=11586, db1_di_im=    0, db1_do_re=    x, db1_do_im=    x
db1_di_re=11545, db1_di_im=    0, db1_do_re=    x, db1_do_im=    x
db1_di_re=11505, db1_di_im=    0, db1_do_re=    x, db1_do_im=    x
db1_di_re=11464, db1_di_im=    0, db1_do_re=    x, db1_do_im=    x
db1_di_re=11424, db1_di_im=    0, db1_do_re=    x, db1_do_im=    x
db1_di_re=11384, db1_di_im=    0, db1_do_re=    x, db1_do_im=    x
db1_di_re=11345, db1_di_im=    0, db1_do_re=    x, db1_do_im=    x
db1_di_re=11305, db1_di_im=    0, db1_do_re=    x, db1_do_im=    x
db1_di_re=11266, db1_di_im=    0, db1_do_re=    x, db1_do_im=    x
db1_di_re=11227, db1_di_im=    0, db1_do_re=    x, db1_do_im=    x
