r22sdf.sim/sim_1/behav/xsim/simulate.log
Time resolution is 1 ps
bf1_x0_re= 8191, bf1_x0_im=    0, bf1_x1_re= 8193, bf1_x1_im=    0, bf1_y0_re=    0, bf1_y0_im=    0, bf1_y1_re= 8191, bf1_y1_im=    0
bf1_x0_re= 8191, bf1_x0_im=    0, bf1_x1_re= 8193, bf1_x1_im=    0, bf1_y0_re=    0, bf1_y0_im=    0, bf1_y1_re= 8191, bf1_y1_im=    0
bf1_x0_re= 8191, bf1_x0_im=    0, bf1_x1_re= 8193, bf1_x1_im=    0, bf1_y0_re=    0, bf1_y0_im=    0, bf1_y1_re= 8191, bf1_y1_im=    0
bf1_x0_re= 8190, bf1_x0_im=    0, bf1_x1_re= 8194, bf1_x1_im=    0, bf1_y0_re=    0, bf1_y0_im=    0, bf1_y1_re= 8190, bf1_y1_im=    0
bf1_x0_re= 8189, bf1_x0_im=    0, bf1_x1_re= 8195, bf1_x1_im=    0, bf1_y0_re=    0, bf1_y0_im=    0, bf1_y1_re= 8189, bf1_y1_im=    0
bf1_x0_re= 8187, bf1_x0_im=    0, bf1_x1_re= 8197, bf1_x1_im=    0, bf1_y0_re=    0, bf1_y0_im=    0, bf1_y1_re= 8187, bf1_y1_im=    0
bf1_x0_re= 8186, bf1_x0_im=    0, bf1_x1_re= 8198, bf1_x1_im=    0, bf1_y0_re=    0, bf1_y0_im=    0, bf1_y1_re= 8186, bf1_y1_im=    0
bf1_x0_re= 8184, bf1_x0_im=    0, bf1_x1_re= 8200, bf1_x1_im=    0, bf1_y0_re=    0, bf1_y0_im=    0, bf1_y1_re= 8184, bf1_y1_im=    0
bf1_x0_re= 8181, bf1_x0_im=    0, bf1_x1_re= 8203, bf1_x1_im=    0, bf1_y0_re=    0, bf1_y0_im=    0, bf1_y1_re= 8181, bf1_y1_im=    0
bf1_x0_re= 8179, bf1_x0_im=    0, bf1_x1_re= 8205, bf1_x1_im=    0, bf1_y0_re=    0, bf1_y0_im=    0, bf1_y1_re= 8179, bf1_y1_im=    0
bf1_x0_re= 8176, bf1_x0_im=    0, bf1_x1_re= 8208, bf1_x1_im=    0, bf1_y0_re=    0, bf1_y0_im=    0, bf1_y1_re= 8176, bf1_y1_im=    0
bf1_x0_re= 8173, bf1_x0_im=    0, bf1_x1_re= 8211, bf1_x1_im=    0, bf1_y0_re=    0, bf1_y0_im=    0, bf1_y1_re= 8173, bf1_y1_im=    0
bf1_x0_re= 8169, bf1_x0_im=    0, bf1_x1_re= 8215, bf1_x1_im=    0, bf1_y0_re=    0, bf1_y0_im=    0, bf1_y1_re= 8169, bf1_y1_im=    0
bf1_x0_re= 8165, bf1_x0_im=    0, bf1_x1_re= 8219, bf1_x1_im=    0, bf1_y0_re=    0, bf1_y0_im=    0, bf1_y1_re= 8165, bf1_y1_im=    0
bf1_x0_re= 8161, bf1_x0_im=    0, bf1_x1_re= 8223, bf1_x1_im=    0, bf1_y0_re=    0, bf1_y0_im=    0, bf1_y1_re= 8161, bf1_y1_im=    0
bf1_x0_re= 8157, bf1_x0_im=    0, bf1_x1_re= 8227, bf1_x1_im=    0, bf1_y0_re=    0, bf1_y0_im=    0, bf1_y1_re= 8157, bf1_y1_im=    0
bf1_x0_re= 8152, bf1_x0_im=    0, bf1_x1_re= 8232, bf1_x1_im=    0, bf1_y0_re=    0, bf1_y0_im=    0, bf1_y1_re= 8152, bf1_y1_im=    0
bf1_x0_re= 8147, bf1_x0_im=    0, bf1_x1_re= 8237, bf1_x1_im=    0, bf1_y0_re=    0, bf1_y0_im=    0, bf1_y1_re= 8147, bf1_y1_im=    0
bf1_x0_re= 8141, bf1_x0_im=    0, bf1_x1_re= 8243, bf1_x1_im=    0, bf1_y0_re=    0, bf1_y0_im=    0, bf1_y1_re= 8141, bf1_y1_im=    0
bf1_x0_re= 8136, bf1_x0_im=    0, bf1_x1_re= 8248, bf1_x1_im=    0, bf1_y0_re=    0, bf1_y0_im=    0, bf1_y1_re= 8136, bf1_y1_im=    0
bf1_x0_re= 8130, bf1_x0_im=    0, bf1_x1_re= 8254, bf1_x1_im=    0, bf1_y0_re=    0, bf1_y0_im=    0, bf1_y1_re= 8130, bf1_y1_im=    0
bf1_x0_re= 8123, bf1_x0_im=    0, bf1_x1_re= 8261, bf1_x1_im=    0, bf1_y0_re=    0, bf1_y0_im=    0, bf1_y1_re= 8123, bf1_y1_im=    0
bf1_x0_re= 8117, bf1_x0_im=    0, bf1_x1_re= 8267, bf1_x1_im=    0, bf1_y0_re=    0, bf1_y0_im=    0, bf1_y1_re= 8117, bf1_y1_im=    0
bf1_x0_re= 8110, bf1_x0_im=    0, bf1_x1_re= 8274, bf1_x1_im=    0, bf1_y0_re=    0, bf1_y0_im=    0, bf1_y1_re= 8110, bf1_y1_im=    0
bf1_x0_re= 8103, bf1_x0_im=    0, bf1_x1_re= 8281, bf1_x1_im=    0, bf1_y0_re=    0, bf1_y0_im=    0, bf1_y1_re= 8103, bf1_y1_im=    0
bf1_x0_re= 8095, bf1_x0_im=    0, bf1_x1_re= 8289, bf1_x1_im=    0, bf1_y0_re=    0, bf1_y0_im=    0, bf1_y1_re= 8095, bf1_y1_im=    0
bf1_x0_re= 8087, bf1_x0_im=    0, bf1_x1_re= 8297, bf1_x1_im=    0, bf1_y0_re=    0, bf1_y0_im=    0, bf1_y1_re= 8087, bf1_y1_im=    0
bf1_x0_re= 8079, bf1_x0_im=    0, bf1_x1_re= 8305, bf1_x1_im=    0, bf1_y0_re=    0, bf1_y0_im=    0, bf1_y1_re= 8079, bf1_y1_im=    0
bf1_x0_re= 8071, bf1_x0_im=    0, bf1_x1_re= 8313, bf1_x1_im=    0, bf1_y0_re=    0, bf1_y0_im=    0, bf1_y1_re= 8071, bf1_y1_im=    0
bf1_x0_re= 8062, bf1_x0_im=    0, bf1_x1_re= 8322, bf1_x1_im=    0, bf1_y0_re=    0, bf1_y0_im=    0, bf1_y1_re= 8062, bf1_y1_im=    0
bf1_x0_re= 8053, bf1_x0_im=    0, bf1_x1_re= 8331, bf1_x1_im=    0, bf1_y0_re=    0, bf1_y0_im=    0, bf1_y1_re= 8053, bf1_y1_im=    0
bf1_x0_re= 8043, bf1_x0_im=    0, bf1_x1_re= 8341, bf1_x1_im=    0, bf1_y0_re=    0, bf1_y0_im=    0, bf1_y1_re= 8043, bf1_y1_im=    0
bf1_x0_re= 8034, bf1_x0_im=    0, bf1_x1_re= 8350, bf1_x1_im=    0, bf1_y0_re=    0, bf1_y0_im=    0, bf1_y1_re= 8034, bf1_y1_im=    0
bf1_x0_re= 8024, bf1_x0_im=    0, bf1_x1_re= 8360, bf1_x1_im=    0, bf1_y0_re=    0, bf1_y0_im=    0, bf1_y1_re= 8024, bf1_y1_im=    0
bf1_x0_re= 8014, bf1_x0_im=    0, bf1_x1_re= 8370, bf1_x1_im=    0, bf1_y0_re=    0, bf1_y0_im=    0, bf1_y1_re= 8014, bf1_y1_im=    0
bf1_x0_re= 8003, bf1_x0_im=    0, bf1_x1_re= 8381, bf1_x1_im=    0, bf1_y0_re=    0, bf1_y0_im=    0, bf1_y1_re= 8003, bf1_y1_im=    0
bf1_x0_re= 7992, bf1_x0_im=    0, bf1_x1_re= 8392, bf1_x1_im=    0, bf1_y0_re=    0, bf1_y0_im=    0, bf1_y1_re= 7992, bf1_y1_im=    0
bf1_x0_re= 7981, bf1_x0_im=    0, bf1_x1_re= 8403, bf1_x1_im=    0, bf1_y0_re=    0, bf1_y0_im=    0, bf1_y1_re= 7981, bf1_y1_im=    0
bf1_x0_re= 7970, bf1_x0_im=    0, bf1_x1_re= 8414, bf1_x1_im=    0, bf1_y0_re=    0, bf1_y0_im=    0, bf1_y1_re= 7970, bf1_y1_im=    0
bf1_x0_re= 7958, bf1_x0_im=    0, bf1_x1_re= 8426, bf1_x1_im=    0, bf1_y0_re=    0, bf1_y0_im=    0, bf1_y1_re= 7958, bf1_y1_im=    0
bf1_x0_re= 7946, bf1_x0_im=    0, bf1_x1_re= 8438, bf1_x1_im=    0, bf1_y0_re=    0, bf1_y0_im=    0, bf1_y1_re= 7946, bf1_y1_im=    0
bf1_x0_re= 7933, bf1_x0_im=    0, bf1_x1_re= 8451, bf1_x1_im=    0, bf1_y0_re=    0, bf1_y0_im=    0, bf1_y1_re= 7933, bf1_y1_im=    0
bf1_x0_re= 7921, bf1_x0_im=    0, bf1_x1_re= 8463, bf1_x1_im=    0, bf1_y0_re=    0, bf1_y0_im=    0, bf1_y1_re= 7921, bf1_y1_im=    0
bf1_x0_re= 7908, bf1_x0_im=    0, bf1_x1_re= 8476, bf1_x1_im=    0, bf1_y0_re=    0, bf1_y0_im=    0, bf1_y1_re= 7908, bf1_y1_im=    0
bf1_x0_re= 7894, bf1_x0_im=    0, bf1_x1_re= 8490, bf1_x1_im=    0, bf1_y0_re=    0, bf1_y0_im=    0, bf1_y1_re= 7894, bf1_y1_im=    0
bf1_x0_re= 7881, bf1_x0_im=    0, bf1_x1_re= 8503, bf1_x1_im=    0, bf1_y0_re=    0, bf1_y0_im=    0, bf1_y1_re= 7881, bf1_y1_im=    0
bf1_x0_re= 7867, bf1_x0_im=    0, bf1_x1_re= 8517, bf1_x1_im=    0, bf1_y0_re=    0, bf1_y0_im=    0, bf1_y1_re= 7867, bf1_y1_im=    0
bf1_x0_re= 7853, bf1_x0_im=    0, bf1_x1_re= 8531, bf1_x1_im=    0, bf1_y0_re=    0, bf1_y0_im=    0, bf1_y1_re= 7853, bf1_y1_im=    0
bf1_x0_re= 7838, bf1_x0_im=    0, bf1_x1_re= 8546, bf1_x1_im=    0, bf1_y0_re=    0, bf1_y0_im=    0, bf1_y1_re= 7838, bf1_y1_im=    0
bf1_x0_re= 7824, bf1_x0_im=    0, bf1_x1_re= 8560, bf1_x1_im=    0, bf1_y0_re=    0, bf1_y0_im=    0, bf1_y1_re= 7824, bf1_y1_im=    0
bf1_x0_re= 7809, bf1_x0_im=    0, bf1_x1_re= 8575, bf1_x1_im=    0, bf1_y0_re=    0, bf1_y0_im=    0, bf1_y1_re= 7809, bf1_y1_im=    0
bf1_x0_re= 7793, bf1_x0_im=    0, bf1_x1_re= 8591, bf1_x1_im=    0, bf1_y0_re=    0, bf1_y0_im=    0, bf1_y1_re= 7793, bf1_y1_im=    0
bf1_x0_re= 7778, bf1_x0_im=    0, bf1_x1_re= 8606, bf1_x1_im=    0, bf1_y0_re=    0, bf1_y0_im=    0, bf1_y1_re= 7778, bf1_y1_im=    0
bf1_x0_re= 7762, bf1_x0_im=    0, bf1_x1_re= 8622, bf1_x1_im=    0, bf1_y0_re=    0, bf1_y0_im=    0, bf1_y1_re= 7762, bf1_y1_im=    0
bf1_x0_re= 7746, bf1_x0_im=    0, bf1_x1_re= 8638, bf1_x1_im=    0, bf1_y0_re=    0, bf1_y0_im=    0, bf1_y1_re= 7746, bf1_y1_im=    0
bf1_x0_re= 7729, bf1_x0_im=    0, bf1_x1_re= 8655, bf1_x1_im=    0, bf1_y0_re=    0, bf1_y0_im=    0, bf1_y1_re= 7729, bf1_y1_im=    0
bf1_x0_re= 7712, bf1_x0_im=    0, bf1_x1_re= 8672, bf1_x1_im=    0, bf1_y0_re=    0, bf1_y0_im=    0, bf1_y1_re= 7712, bf1_y1_im=    0
bf1_x0_re= 7695, bf1_x0_im=    0, bf1_x1_re= 8689, bf1_x1_im=    0, bf1_y0_re=    0, bf1_y0_im=    0, bf1_y1_re= 7695, bf1_y1_im=    0
bf1_x0_re= 7678, bf1_x0_im=    0, bf1_x1_re= 8706, bf1_x1_im=    0, bf1_y0_re=    0, bf1_y0_im=    0, bf1_y1_re= 7678, bf1_y1_im=    0
bf1_x0_re= 7660, bf1_x0_im=    0, bf1_x1_re= 8724, bf1_x1_im=    0, bf1_y0_re=    0, bf1_y0_im=    0, bf1_y1_re= 7660, bf1_y1_im=    0
bf1_x0_re= 7642, bf1_x0_im=    0, bf1_x1_re= 8742, bf1_x1_im=    0, bf1_y0_re=    0, bf1_y0_im=    0, bf1_y1_re= 7642, bf1_y1_im=    0
bf1_x0_re= 7624, bf1_x0_im=    0, bf1_x1_re= 8760, bf1_x1_im=    0, bf1_y0_re=    0, bf1_y0_im=    0, bf1_y1_re= 7624, bf1_y1_im=    0
bf1_x0_re= 7606, bf1_x0_im=    0, bf1_x1_re= 8778, bf1_x1_im=    0, bf1_y0_re=    0, bf1_y0_im=    0, bf1_y1_re= 7606, bf1_y1_im=    0
bf1_x0_re= 7587, bf1_x0_im=    0, bf1_x1_re= 8797, bf1_x1_im=    0, bf1_y0_re=    0, bf1_y0_im=    0, bf1_y1_re= 7587, bf1_y1_im=    0
bf1_x0_re= 7568, bf1_x0_im=    0, bf1_x1_re= 8816, bf1_x1_im=    0, bf1_y0_re=    0, bf1_y0_im=    0, bf1_y1_re= 7568, bf1_y1_im=    0
bf1_x0_re= 7548, bf1_x0_im=    0, bf1_x1_re= 8836, bf1_x1_im=    0, bf1_y0_re=    0, bf1_y0_im=    0, bf1_y1_re= 7548, bf1_y1_im=    0
bf1_x0_re= 7529, bf1_x0_im=    0, bf1_x1_re= 8855, bf1_x1_im=    0, bf1_y0_re=    0, bf1_y0_im=    0, bf1_y1_re= 7529, bf1_y1_im=    0
bf1_x0_re= 7509, bf1_x0_im=    0, bf1_x1_re= 8875, bf1_x1_im=    0, bf1_y0_re=    0, bf1_y0_im=    0, bf1_y1_re= 7509, bf1_y1_im=    0
bf1_x0_re= 7488, bf1_x0_im=    0, bf1_x1_re= 8896, bf1_x1_im=    0, bf1_y0_re=    0, bf1_y0_im=    0, bf1_y1_re= 7488, bf1_y1_im=    0
bf1_x0_re= 7468, bf1_x0_im=    0, bf1_x1_re= 8916, bf1_x1_im=    0, bf1_y0_re=    0, bf1_y0_im=    0, bf1_y1_re= 7468, bf1_y1_im=    0
bf1_x0_re= 7447, bf1_x0_im=    0, bf1_x1_re= 8937, bf1_x1_im=    0, bf1_y0_re=    0, bf1_y0_im=    0, bf1_y1_re= 7447, bf1_y1_im=    0
bf1_x0_re= 7426, bf1_x0_im=    0, bf1_x1_re= 8958, bf1_x1_im=    0, bf1_y0_re=    0, bf1_y0_im=    0, bf1_y1_re= 7426, bf1_y1_im=    0
bf1_x0_re= 7405, bf1_x0_im=    0, bf1_x1_re= 8979, bf1_x1_im=    0, bf1_y0_re=    0, bf1_y0_im=    0, bf1_y1_re= 7405, bf1_y1_im=    0
bf1_x0_re= 7383, bf1_x0_im=    0, bf1_x1_re= 9001, bf1_x1_im=    0, bf1_y0_re=    0, bf1_y0_im=    0, bf1_y1_re= 7383, bf1_y1_im=    0
bf1_x0_re= 7361, bf1_x0_im=    0, bf1_x1_re= 9023, bf1_x1_im=    0, bf1_y0_re=    0, bf1_y0_im=    0, bf1_y1_re= 7361, bf1_y1_im=    0
bf1_x0_re= 7339, bf1_x0_im=    0, bf1_x1_re= 9045, bf1_x1_im=    0, bf1_y0_re=    0, bf1_y0_im=    0, bf1_y1_re= 7339, bf1_y1_im=    0
bf1_x0_re= 7317, bf1_x0_im=    0, bf1_x1_re= 9067, bf1_x1_im=    0, bf1_y0_re=    0, bf1_y0_im=    0, bf1_y1_re= 7317, bf1_y1_im=    0
bf1_x0_re= 7294, bf1_x0_im=    0, bf1_x1_re= 9090, bf1_x1_im=    0, bf1_y0_re=    0, bf1_y0_im=    0, bf1_y1_re= 7294, bf1_y1_im=    0
bf1_x0_re= 7271, bf1_x0_im=    0, bf1_x1_re= 9113, bf1_x1_im=    0, bf1_y0_re=    0, bf1_y0_im=    0, bf1_y1_re= 7271, bf1_y1_im=    0
bf1_x0_re= 7248, bf1_x0_im=    0, bf1_x1_re= 9136, bf1_x1_im=    0, bf1_y0_re=    0, bf1_y0_im=    0, bf1_y1_re= 7248, bf1_y1_im=    0
bf1_x0_re= 7224, bf1_x0_im=    0, bf1_x1_re= 9160, bf1_x1_im=    0, bf1_y0_re=    0, bf1_y0_im=    0, bf1_y1_re= 7224, bf1_y1_im=    0
bf1_x0_re= 7200, bf1_x0_im=    0, bf1_x1_re= 9184, bf1_x1_im=    0, bf1_y0_re=    0, bf1_y0_im=    0, bf1_y1_re= 7200, bf1_y1_im=    0
bf1_x0_re= 7176, bf1_x0_im=    0, bf1_x1_re= 9208, bf1_x1_im=    0, bf1_y0_re=    0, bf1_y0_im=    0, bf1_y1_re= 7176, bf1_y1_im=    0
bf1_x0_re= 7152, bf1_x0_im=    0, bf1_x1_re= 9232, bf1_x1_im=    0, bf1_y0_re=    0, bf1_y0_im=    0, bf1_y1_re= 7152, bf1_y1_im=    0
bf1_x0_re= 7127, bf1_x0_im=    0, bf1_x1_re= 9257, bf1_x1_im=    0, bf1_y0_re=    0, bf1_y0_im=    0, bf1_y1_re= 7127, bf1_y1_im=    0
bf1_x0_re= 7102, bf1_x0_im=    0, bf1_x1_re= 9282, bf1_x1_im=    0, bf1_y0_re=    0, bf1_y0_im=    0, bf1_y1_re= 7102, bf1_y1_im=    0
bf1_x0_re= 7077, bf1_x0_im=    0, bf1_x1_re= 9307, bf1_x1_im=    0, bf1_y0_re=    0, bf1_y0_im=    0, bf1_y1_re= 7077, bf1_y1_im=    0
bf1_x0_re= 7052, bf1_x0_im=    0, bf1_x1_re= 9332, bf1_x1_im=    0, bf1_y0_re=    0, bf1_y0_im=    0, bf1_y1_re= 7052, bf1_y1_im=    0
bf1_x0_re= 7026, bf1_x0_im=    0, bf1_x1_re= 9358, bf1_x1_im=    0, bf1_y0_re=    0, bf1_y0_im=    0, bf1_y1_re= 7026, bf1_y1_im=    0
bf1_x0_re= 7000, bf1_x0_im=    0, bf1_x1_re= 9384, bf1_x1_im=    0, bf1_y0_re=    0, bf1_y0_im=    0, bf1_y1_re= 7000, bf1_y1_im=    0
bf1_x0_re= 6974, bf1_x0_im=    0, bf1_x1_re= 9410, bf1_x1_im=    0, bf1_y0_re=    0, bf1_y0_im=    0, bf1_y1_re= 6974, bf1_y1_im=    0
bf1_x0_re= 6947, bf1_x0_im=    0, bf1_x1_re= 9437, bf1_x1_im=    0, bf1_y0_re=    0, bf1_y0_im=    0, bf1_y1_re= 6947, bf1_y1_im=    0
bf1_x0_re= 6920, bf1_x0_im=    0, bf1_x1_re= 9464, bf1_x1_im=    0, bf1_y0_re=    0, bf1_y0_im=    0, bf1_y1_re= 6920, bf1_y1_im=    0
bf1_x0_re= 6893, bf1_x0_im=    0, bf1_x1_re= 9491, bf1_x1_im=    0, bf1_y0_re=    0, bf1_y0_im=    0, bf1_y1_re= 6893, bf1_y1_im=    0
bf1_x0_re= 6866, bf1_x0_im=    0, bf1_x1_re= 9518, bf1_x1_im=    0, bf1_y0_re=    0, bf1_y0_im=    0, bf1_y1_re= 6866, bf1_y1_im=    0
bf1_x0_re= 6839, bf1_x0_im=    0, bf1_x1_re= 9545, bf1_x1_im=    0, bf1_y0_re=    0, bf1_y0_im=    0, bf1_y1_re= 6839, bf1_y1_im=    0
bf1_x0_re= 6811, bf1_x0_im=    0, bf1_x1_re= 9573, bf1_x1_im=    0, bf1_y0_re=    0, bf1_y0_im=    0, bf1_y1_re= 6811, bf1_y1_im=    0
bf1_x0_re= 6783, bf1_x0_im=    0, bf1_x1_re= 9601, bf1_x1_im=    0, bf1_y0_re=    0, bf1_y0_im=    0, bf1_y1_re= 6783, bf1_y1_im=    0
bf1_x0_re= 6754, bf1_x0_im=    0, bf1_x1_re= 9630, bf1_x1_im=    0, bf1_y0_re=    0, bf1_y0_im=    0, bf1_y1_re= 6754, bf1_y1_im=    0
bf1_x0_re= 6726, bf1_x0_im=    0, bf1_x1_re= 9658, bf1_x1_im=    0, bf1_y0_re=    0, bf1_y0_im=    0, bf1_y1_re= 6726, bf1_y1_im=    0
bf1_x0_re= 6697, bf1_x0_im=    0, bf1_x1_re= 9687, bf1_x1_im=    0, bf1_y0_re=    0, bf1_y0_im=    0, bf1_y1_re= 6697, bf1_y1_im=    0
bf1_x0_re= 6668, bf1_x0_im=    0, bf1_x1_re= 9716, bf1_x1_im=    0, bf1_y0_re=    0, bf1_y0_im=    0, bf1_y1_re= 6668, bf1_y1_im=    0
bf1_x0_re= 6639, bf1_x0_im=    0, bf1_x1_re= 9745, bf1_x1_im=    0, bf1_y0_re=    0, bf1_y0_im=    0, bf1_y1_re= 6639, bf1_y1_im=    0
bf1_x0_re= 6609, bf1_x0_im=    0, bf1_x1_re= 9775, bf1_x1_im=    0, bf1_y0_re=    0, bf1_y0_im=    0, bf1_y1_re= 6609, bf1_y1_im=    0
bf1_x0_re= 6579, bf1_x0_im=    0, bf1_x1_re= 9805, bf1_x1_im=    0, bf1_y0_re=    0, bf1_y0_im=    0, bf1_y1_re= 6579, bf1_y1_im=    0
bf1_x0_re= 6549, bf1_x0_im=    0, bf1_x1_re= 9835, bf1_x1_im=    0, bf1_y0_re=    0, bf1_y0_im=    0, bf1_y1_re= 6549, bf1_y1_im=    0
bf1_x0_re= 6519, bf1_x0_im=    0, bf1_x1_re= 9865, bf1_x1_im=    0, bf1_y0_re=    0, bf1_y0_im=    0, bf1_y1_re= 6519, bf1_y1_im=    0
bf1_x0_re= 6488, bf1_x0_im=    0, bf1_x1_re= 9896, bf1_x1_im=    0, bf1_y0_re=    0, bf1_y0_im=    0, bf1_y1_re= 6488, bf1_y1_im=    0
bf1_x0_re= 6457, bf1_x0_im=    0, bf1_x1_re= 9927, bf1_x1_im=    0, bf1_y0_re=    0, bf1_y0_im=    0, bf1_y1_re= 6457, bf1_y1_im=    0
bf1_x0_re= 6426, bf1_x0_im=    0, bf1_x1_re= 9958, bf1_x1_im=    0, bf1_y0_re=    0, bf1_y0_im=    0, bf1_y1_re= 6426, bf1_y1_im=    0
bf1_x0_re= 6395, bf1_x0_im=    0, bf1_x1_re= 9989, bf1_x1_im=    0, bf1_y0_re=    0, bf1_y0_im=    0, bf1_y1_re= 6395, bf1_y1_im=    0
bf1_x0_re= 6364, bf1_x0_im=    0, bf1_x1_re=10020, bf1_x1_im=    0, bf1_y0_re=    0, bf1_y0_im=    0, bf1_y1_re= 6364, bf1_y1_im=    0
bf1_x0_re= 6332, bf1_x0_im=    0, bf1_x1_re=10052, bf1_x1_im=    0, bf1_y0_re=    0, bf1_y0_im=    0, bf1_y1_re= 6332, bf1_y1_im=    0
bf1_x0_re= 6300, bf1_x0_im=    0, bf1_x1_re=10084, bf1_x1_im=    0, bf1_y0_re=    0, bf1_y0_im=    0, bf1_y1_re= 6300, bf1_y1_im=    0
bf1_x0_re= 6268, bf1_x0_im=    0, bf1_x1_re=10116, bf1_x1_im=    0, bf1_y0_re=    0, bf1_y0_im=    0, bf1_y1_re= 6268, bf1_y1_im=    0
bf1_x0_re= 6235, bf1_x0_im=    0, bf1_x1_re=10149, bf1_x1_im=    0, bf1_y0_re=    0, bf1_y0_im=    0, bf1_y1_re= 6235, bf1_y1_im=    0
bf1_x0_re= 6202, bf1_x0_im=    0, bf1_x1_re=10182, bf1_x1_im=    0, bf1_y0_re=    0, bf1_y0_im=    0, bf1_y1_re= 6202, bf1_y1_im=    0
bf1_x0_re= 6169, bf1_x0_im=    0, bf1_x1_re=10215, bf1_x1_im=    0, bf1_y0_re=    0, bf1_y0_im=    0, bf1_y1_re= 6169, bf1_y1_im=    0
bf1_x0_re= 6136, bf1_x0_im=    0, bf1_x1_re=10248, bf1_x1_im=    0, bf1_y0_re=    0, bf1_y0_im=    0, bf1_y1_re= 6136, bf1_y1_im=    0
bf1_x0_re= 6103, bf1_x0_im=    0, bf1_x1_re=10281, bf1_x1_im=    0, bf1_y0_re=    0, bf1_y0_im=    0, bf1_y1_re= 6103, bf1_y1_im=    0
bf1_x0_re= 6069, bf1_x0_im=    0, bf1_x1_re=10315, bf1_x1_im=    0, bf1_y0_re=    0, bf1_y0_im=    0, bf1_y1_re= 6069, bf1_y1_im=    0
bf1_x0_re= 6035, bf1_x0_im=    0, bf1_x1_re=10349, bf1_x1_im=    0, bf1_y0_re=    0, bf1_y0_im=    0, bf1_y1_re= 6035, bf1_y1_im=    0
bf1_x0_re= 6001, bf1_x0_im=    0, bf1_x1_re=10383, bf1_x1_im=    0, bf1_y0_re=    0, bf1_y0_im=    0, bf1_y1_re= 6001, bf1_y1_im=    0
bf1_x0_re= 5967, bf1_x0_im=    0, bf1_x1_re=10417, bf1_x1_im=    0, bf1_y0_re=    0, bf1_y0_im=    0, bf1_y1_re= 5967, bf1_y1_im=    0
bf1_x0_re= 5932, bf1_x0_im=    0, bf1_x1_re=10452, bf1_x1_im=    0, bf1_y0_re=    0, bf1_y0_im=    0, bf1_y1_re= 5932, bf1_y1_im=    0
bf1_x0_re= 5898, bf1_x0_im=    0, bf1_x1_re=10486, bf1_x1_im=    0, bf1_y0_re=    0, bf1_y0_im=    0, bf1_y1_re= 5898, bf1_y1_im=    0
bf1_x0_re= 5863, bf1_x0_im=    0, bf1_x1_re=10521, bf1_x1_im=    0, bf1_y0_re=    0, bf1_y0_im=    0, bf1_y1_re= 5863, bf1_y1_im=    0
bf1_x0_re= 5827, bf1_x0_im=    0, bf1_x1_re=10557, bf1_x1_im=    0, bf1_y0_re=    0, bf1_y0_im=    0, bf1_y1_re= 5827, bf1_y1_im=    0
bf1_x0_re= 5792, bf1_x0_im=    0, bf1_x1_re=10592, bf1_x1_im=    0, bf1_y0_re=    0, bf1_y0_im=    0, bf1_y1_re= 5792, bf1_y1_im=    0
bf1_x0_re= 5756, bf1_x0_im=    0, bf1_x1_re=10628, bf1_x1_im=    0, bf1_y0_re=    0, bf1_y0_im=    0, bf1_y1_re= 5756, bf1_y1_im=    0
bf1_x0_re= 5721, bf1_x0_im=    0, bf1_x1_re=10663, bf1_x1_im=    0, bf1_y0_re=    0, bf1_y0_im=    0, bf1_y1_re= 5721, bf1_y1_im=    0
bf1_x0_re= 5684, bf1_x0_im=    0, bf1_x1_re=10700, bf1_x1_im=    0, bf1_y0_re=    0, bf1_y0_im=    0, bf1_y1_re= 5684, bf1_y1_im=    0
bf1_x0_re= 5648, bf1_x0_im=    0, bf1_x1_re=10736, bf1_x1_im=    0, bf1_y0_re=    0, bf1_y0_im=    0, bf1_y1_re= 5648, bf1_y1_im=    0
bf1_x0_re= 5612, bf1_x0_im=    0, bf1_x1_re=10772, bf1_x1_im=    0, bf1_y0_re=    0, bf1_y0_im=    0, bf1_y1_re= 5612, bf1_y1_im=    0
bf1_x0_re= 5575, bf1_x0_im=    0, bf1_x1_re=10809, bf1_x1_im=    0, bf1_y0_re=    0, bf1_y0_im=    0, bf1_y1_re= 5575, bf1_y1_im=    0
bf1_x0_re= 5538, bf1_x0_im=    0, bf1_x1_re=10846, bf1_x1_im=    0, bf1_y0_re=    0, bf1_y0_im=    0, bf1_y1_re= 5538, bf1_y1_im=    0
bf1_x0_re= 5501, bf1_x0_im=    0, bf1_x1_re=10883, bf1_x1_im=    0, bf1_y0_re=    0, bf1_y0_im=    0, bf1_y1_re= 5501, bf1_y1_im=    0
bf1_x0_re= 5464, bf1_x0_im=    0, bf1_x1_re=10920, bf1_x1_im=    0, bf1_y0_re=    0, bf1_y0_im=    0, bf1_y1_re= 5464, bf1_y1_im=    0
bf1_x0_re= 5426, bf1_x0_im=    0, bf1_x1_re=10958, bf1_x1_im=    0, bf1_y0_re=    0, bf1_y0_im=    0, bf1_y1_re= 5426, bf1_y1_im=    0
bf1_x0_re= 5388, bf1_x0_im=    0, bf1_x1_re=10996, bf1_x1_im=    0, bf1_y0_re=    0, bf1_y0_im=    0, bf1_y1_re= 5388, bf1_y1_im=    0
bf1_x0_re= 5350, bf1_x0_im=    0, bf1_x1_re=11034, bf1_x1_im=    0, bf1_y0_re=    0, bf1_y0_im=    0, bf1_y1_re= 5350, bf1_y1_im=    0
bf1_x0_re= 5312, bf1_x0_im=    0, bf1_x1_re=11072, bf1_x1_im=    0, bf1_y0_re=    0, bf1_y0_im=    0, bf1_y1_re= 5312, bf1_y1_im=    0
bf1_x0_re= 5274, bf1_x0_im=    0, bf1_x1_re=11110, bf1_x1_im=    0, bf1_y0_re=    0, bf1_y0_im=    0, bf1_y1_re= 5274, bf1_y1_im=    0
bf1_x0_re= 5235, bf1_x0_im=    0, bf1_x1_re=11149, bf1_x1_im=    0, bf1_y0_re=    0, bf1_y0_im=    0, bf1_y1_re= 5235, bf1_y1_im=    0
bf1_x0_re= 5196, bf1_x0_im=    0, bf1_x1_re=11188, bf1_x1_im=    0, bf1_y0_re=    0, bf1_y0_im=    0, bf1_y1_re= 5196, bf1_y1_im=    0
bf1_x0_re= 5157, bf1_x0_im=    0, bf1_x1_re=11227, bf1_x1_im=    0, bf1_y0_re=    0, bf1_y0_im=    0, bf1_y1_re= 5157, bf1_y1_im=    0
bf1_x0_re= 5118, bf1_x0_im=    0, bf1_x1_re=11266, bf1_x1_im=    0, bf1_y0_re=    0, bf1_y0_im=    0, bf1_y1_re= 5118, bf1_y1_im=    0
bf1_x0_re= 5079, bf1_x0_im=    0, bf1_x1_re=11305, bf1_x1_im=    0, bf1_y0_re=    0, bf1_y0_im=    0, bf1_y1_re= 5079, bf1_y1_im=    0
bf1_x0_re= 5039, bf1_x0_im=    0, bf1_x1_re=11345, bf1_x1_im=    0, bf1_y0_re=    0, bf1_y0_im=    0, bf1_y1_re= 5039, bf1_y1_im=    0
bf1_x0_re= 5000, bf1_x0_im=    0, bf1_x1_re=11384, bf1_x1_im=    0, bf1_y0_re=    0, bf1_y0_im=    0, bf1_y1_re= 5000, bf1_y1_im=    0
bf1_x0_re= 4960, bf1_x0_im=    0, bf1_x1_re=11424, bf1_x1_im=    0, bf1_y0_re=    0, bf1_y0_im=    0, bf1_y1_re= 4960, bf1_y1_im=    0
